<?xml version="1.0" encoding="utf-8"?>
<!-- Generator: Adobe Illustrator 16.0.0, SVG Export Plug-In . SVG Version: 6.00 Build 0)  -->
<!DOCTYPE svg PUBLIC "-//W3C//DTD SVG 1.1//EN" "http://www.w3.org/Graphics/SVG/1.1/DTD/svg11.dtd">
<svg version="1.1" id="Layer_1" xmlns="http://www.w3.org/2000/svg" xmlns:xlink="http://www.w3.org/1999/xlink" x="0px" y="0px"
	 width="1442px" height="891.001px" viewBox="0 0 1442 891.001" enable-background="new 0 0 1442 891.001" xml:space="preserve">
<g>
	<g>
		<defs>
			<polygon id="SVGID_1_" points="804.995,-5.806 844.629,601 1440.575,627.188 1440.575,-5.806 			"/>
		</defs>
		<clipPath id="SVGID_2_">
			<use xlink:href="#SVGID_1_"  overflow="visible"/>
		</clipPath>
		<g clip-path="url(#SVGID_2_)">
			<g>
				<defs>
					<rect id="SVGID_3_" x="1359.235" y="-120.63" width="765.109" height="622.94"/>
				</defs>
				<clipPath id="SVGID_4_">
					<use xlink:href="#SVGID_3_"  overflow="visible"/>
				</clipPath>
				<g clip-path="url(#SVGID_4_)">
					<defs>
						<path id="SVGID_5_" d="M1359.231,502.306c193.068-2.511,446.338-25.576,759.734-103.471
							c21.814-215.703-25.834-387.05-87.355-519.463c-179.953,212.484-409.996,355.974-617.242,451.796
							C1403.815,383.408,1386.469,440.529,1359.231,502.306"/>
					</defs>
					<clipPath id="SVGID_6_">
						<use xlink:href="#SVGID_5_"  overflow="visible"/>
					</clipPath>
					
						<linearGradient id="SVGID_7_" gradientUnits="userSpaceOnUse" x1="52.7612" y1="1764.2695" x2="53.7612" y2="1764.2695" gradientTransform="matrix(-1049.3671 171.3294 171.3294 1049.3671 -244794.5156 -1860273.5)">
						<stop  offset="0" style="stop-color:#72BF44"/>
						<stop  offset="0.1574" style="stop-color:#72BF44"/>
						<stop  offset="0.2422" style="stop-color:#88C65A"/>
						<stop  offset="0.5117" style="stop-color:#C6E1AE"/>
						<stop  offset="0.6973" style="stop-color:#ECF5E5"/>
						<stop  offset="0.7828" style="stop-color:#FFFFFF"/>
						<stop  offset="1" style="stop-color:#FFFFFF"/>
					</linearGradient>
					<polygon clip-path="url(#SVGID_6_)" fill="url(#SVGID_7_)" points="2239.844,486.132 1379.524,626.596 1260.167,-104.454 
						2120.487,-244.917 					"/>
				</g>
			</g>
		</g>
		<g clip-path="url(#SVGID_2_)">
			<g>
				<defs>
					<rect id="SVGID_8_" x="1227.786" y="-100.53" width="357.84" height="465.24"/>
				</defs>
				<clipPath id="SVGID_9_">
					<use xlink:href="#SVGID_8_"  overflow="visible"/>
				</clipPath>
				<g clip-path="url(#SVGID_9_)">
					<defs>
						<path id="SVGID_10_" d="M1585.622,114.506c-98.695,97.268-240.445,180.423-354.227,250.204
							c14.74-92.467-3.605-132.36-3.605-132.36s199.045-196.514,290.457-332.879C1543.231-30.459,1560.17-8.61,1585.622,114.506"/>
					</defs>
					<clipPath id="SVGID_11_">
						<use xlink:href="#SVGID_10_"  overflow="visible"/>
					</clipPath>
					
						<linearGradient id="SVGID_12_" gradientUnits="userSpaceOnUse" x1="52.7954" y1="1764.3818" x2="53.7954" y2="1764.3818" gradientTransform="matrix(-773.3509 126.2644 126.2644 773.3509 -180365.4375 -1371049.5)">
						<stop  offset="0" style="stop-color:#72BF44"/>
						<stop  offset="0.1574" style="stop-color:#72BF44"/>
						<stop  offset="0.2422" style="stop-color:#88C65A"/>
						<stop  offset="0.5117" style="stop-color:#C6E1AE"/>
						<stop  offset="0.6973" style="stop-color:#ECF5E5"/>
						<stop  offset="0.7828" style="stop-color:#FFFFFF"/>
						<stop  offset="1" style="stop-color:#FFFFFF"/>
					</linearGradient>
					<polygon clip-path="url(#SVGID_11_)" fill="url(#SVGID_12_)" points="1659.61,352.63 1237.081,421.616 1153.801,-88.449 
						1576.331,-157.435 					"/>
				</g>
			</g>
		</g>
		<g clip-path="url(#SVGID_2_)">
			<g>
				<defs>
					<rect id="SVGID_13_" x="1365.776" y="318.22" width="579.068" height="270.921"/>
				</defs>
				<clipPath id="SVGID_14_">
					<use xlink:href="#SVGID_13_"  overflow="visible"/>
				</clipPath>
				<g clip-path="url(#SVGID_14_)">
					<defs>
						<path id="SVGID_15_" d="M1850.786,539.348c-147.461,37.879-485.012,49.795-485.012,49.795l60.322-135.021
							c0,0,344.021-60.046,518.75-135.903C1927.583,393.887,1900.465,442.452,1850.786,539.348"/>
					</defs>
					<clipPath id="SVGID_16_">
						<use xlink:href="#SVGID_15_"  overflow="visible"/>
					</clipPath>
					
						<linearGradient id="SVGID_17_" gradientUnits="userSpaceOnUse" x1="52.5396" y1="1764.3535" x2="53.5396" y2="1764.3535" gradientTransform="matrix(-721.6746 -405.7115 -405.7115 721.6746 755576.375 -1251415.875)">
						<stop  offset="0" style="stop-color:#5C99D2"/>
						<stop  offset="0.1574" style="stop-color:#5C99D2"/>
						<stop  offset="1" style="stop-color:#FFFFFF"/>
					</linearGradient>
					<polygon clip-path="url(#SVGID_16_)" fill="url(#SVGID_17_)" points="1805.782,836.507 1250.042,524.08 1504.836,70.854 
						2060.577,383.281 					"/>
				</g>
			</g>
		</g>
		<g clip-path="url(#SVGID_2_)">
			<defs>
				<rect id="SVGID_18_" x="1158.946" y="362.37" width="226.24" height="191.38"/>
			</defs>
			<clipPath id="SVGID_19_">
				<use xlink:href="#SVGID_18_"  overflow="visible"/>
			</clipPath>
			<g clip-path="url(#SVGID_19_)">
				<defs>
					<path id="SVGID_20_" d="M1318.702,553.695c34.607-70.279,55.238-134.062,66.482-191.322
						c-45.758,17.576-90.672,33.663-134.551,48.488c-23.102,43.946-52.994,90.818-91.686,140.27
						C1207.872,552.988,1260.989,554.02,1318.702,553.695"/>
				</defs>
				<clipPath id="SVGID_21_">
					<use xlink:href="#SVGID_20_"  overflow="visible"/>
				</clipPath>
				
					<linearGradient id="SVGID_22_" gradientUnits="userSpaceOnUse" x1="52.9219" y1="1764.8242" x2="53.9219" y2="1764.8242" gradientTransform="matrix(-389.0337 63.5172 55.0423 337.1258 -75153.7891 -597891.75)">
					<stop  offset="0" style="stop-color:#F6871F"/>
					<stop  offset="0.1574" style="stop-color:#F6871F"/>
					<stop  offset="0.2332" style="stop-color:#F78D29"/>
					<stop  offset="0.3742" style="stop-color:#F89B46"/>
					<stop  offset="0.5649" style="stop-color:#FBB475"/>
					<stop  offset="0.7951" style="stop-color:#FED8B5"/>
					<stop  offset="1" style="stop-color:#FFFFFF"/>
				</linearGradient>
				<polygon clip-path="url(#SVGID_21_)" fill="url(#SVGID_22_)" points="1415.663,549.044 1164.823,589.998 1128.471,367.349 
					1379.309,326.395 				"/>
			</g>
		</g>
		<g clip-path="url(#SVGID_2_)">
			<defs>
				<rect id="SVGID_23_" x="1168.526" y="213.32" width="213.25" height="211.43"/>
			</defs>
			<clipPath id="SVGID_24_">
				<use xlink:href="#SVGID_23_"  overflow="visible"/>
			</clipPath>
			<g clip-path="url(#SVGID_24_)">
				<defs>
					<path id="SVGID_25_" d="M1380.522,327.318c-71.762,37.13-142.867,69.149-211.992,97.436
						c10.047-25.908,17.928-50.713,23.998-74.399c64.793-42.752,126.717-88.29,185.047-137.034
						C1381.565,247.98,1383.067,285.817,1380.522,327.318"/>
				</defs>
				<clipPath id="SVGID_26_">
					<use xlink:href="#SVGID_25_"  overflow="visible"/>
				</clipPath>
				
					<linearGradient id="SVGID_27_" gradientUnits="userSpaceOnUse" x1="52.8608" y1="1764.5684" x2="53.8608" y2="1764.5684" gradientTransform="matrix(-512.4093 83.6607 83.6607 512.4093 -119146.9531 -908303.75)">
					<stop  offset="0" style="stop-color:#72BF44"/>
					<stop  offset="0.1574" style="stop-color:#72BF44"/>
					<stop  offset="0.2422" style="stop-color:#88C65A"/>
					<stop  offset="0.5117" style="stop-color:#C6E1AE"/>
					<stop  offset="0.6973" style="stop-color:#ECF5E5"/>
					<stop  offset="0.7828" style="stop-color:#FFFFFF"/>
					<stop  offset="1" style="stop-color:#FFFFFF"/>
				</linearGradient>
				<polygon clip-path="url(#SVGID_26_)" fill="url(#SVGID_27_)" points="1416.692,419.264 1174.1,458.872 1134.907,218.811 
					1377.497,179.203 				"/>
			</g>
		</g>
		<g clip-path="url(#SVGID_2_)">
			<defs>
				<rect id="SVGID_28_" x="1195.625" y="155.16" width="142.34" height="181.98"/>
			</defs>
			<clipPath id="SVGID_29_">
				<use xlink:href="#SVGID_28_"  overflow="visible"/>
			</clipPath>
			<g clip-path="url(#SVGID_29_)">
				<defs>
					<path id="SVGID_30_" d="M1331.745,227.852c-43.58,37.539-88.996,73.981-136.117,109.286
						c5.459-22.459,9.773-44.218,13.127-65.253c45.115-37.996,88.18-76.915,129.209-116.729
						C1336.92,178.419,1334.946,202.627,1331.745,227.852"/>
				</defs>
				<clipPath id="SVGID_31_">
					<use xlink:href="#SVGID_30_"  overflow="visible"/>
				</clipPath>
				
					<linearGradient id="SVGID_32_" gradientUnits="userSpaceOnUse" x1="52.9722" y1="1764.8926" x2="53.9722" y2="1764.8926" gradientTransform="matrix(-325.6198 53.1637 53.1637 325.6198 -75228.8516 -577267.875)">
					<stop  offset="0" style="stop-color:#5C99D2"/>
					<stop  offset="0.1574" style="stop-color:#5C99D2"/>
					<stop  offset="0.2672" style="stop-color:#699FD5"/>
					<stop  offset="0.4711" style="stop-color:#8AB1DE"/>
					<stop  offset="0.7445" style="stop-color:#C0D2ED"/>
					<stop  offset="1" style="stop-color:#FFFFFF"/>
				</linearGradient>
				<polygon clip-path="url(#SVGID_31_)" fill="url(#SVGID_32_)" points="1366.903,332.413 1199.325,359.773 1166.688,159.88 
					1334.268,132.52 				"/>
			</g>
		</g>
		<g clip-path="url(#SVGID_2_)">
			<defs>
				<rect id="SVGID_33_" x="997.827" y="218.13" width="195.109" height="221.47"/>
			</defs>
			<clipPath id="SVGID_34_">
				<use xlink:href="#SVGID_33_"  overflow="visible"/>
			</clipPath>
			<g clip-path="url(#SVGID_34_)">
				<defs>
					<path id="SVGID_35_" d="M997.827,439.599c58.268-36.955,111.938-74.591,161.615-112.533
						c14.98-38.262,25.742-74.496,33.496-108.94c-50.451,59.801-110.477,121.889-184.738,184.87
						C1005.155,414.963,1001.704,427.161,997.827,439.599"/>
				</defs>
				<clipPath id="SVGID_36_">
					<use xlink:href="#SVGID_35_"  overflow="visible"/>
				</clipPath>
				
					<linearGradient id="SVGID_37_" gradientUnits="userSpaceOnUse" x1="52.7739" y1="1764.582" x2="53.7752" y2="1764.582" gradientTransform="matrix(-525.2816 7.923 7.923 525.2816 15139.9238 -926996.25)">
					<stop  offset="0" style="stop-color:#F6871F"/>
					<stop  offset="0.1574" style="stop-color:#F6871F"/>
					<stop  offset="0.2332" style="stop-color:#F78D29"/>
					<stop  offset="0.3742" style="stop-color:#F89B46"/>
					<stop  offset="0.5649" style="stop-color:#FBB475"/>
					<stop  offset="0.7951" style="stop-color:#FED8B5"/>
					<stop  offset="1" style="stop-color:#FFFFFF"/>
				</linearGradient>
				<polygon clip-path="url(#SVGID_36_)" fill="url(#SVGID_37_)" points="1196.278,439.549 997.87,442.541 994.487,218.176 
					1192.893,215.184 				"/>
			</g>
		</g>
		<g clip-path="url(#SVGID_2_)">
			<defs>
				<rect id="SVGID_38_" x="844.165" y="401.88" width="253.881" height="145.74"/>
			</defs>
			<clipPath id="SVGID_39_">
				<use xlink:href="#SVGID_38_"  overflow="visible"/>
			</clipPath>
			<g clip-path="url(#SVGID_39_)">
				<defs>
					<path id="SVGID_40_" d="M881.821,544.702c64.828-18.576,84.893-25.62,142.389-48.925
						c28.621-32.182,52.863-63.506,73.836-93.894c-67.34,43.614-165.293,104.296-253.881,145.008
						C859.065,548.737,871.862,546.725,881.821,544.702"/>
				</defs>
				<clipPath id="SVGID_41_">
					<use xlink:href="#SVGID_40_"  overflow="visible"/>
				</clipPath>
				
					<linearGradient id="SVGID_42_" gradientUnits="userSpaceOnUse" x1="52.5684" y1="1764.6016" x2="53.5692" y2="1764.6016" gradientTransform="matrix(-484.1604 -165.6242 -165.6242 484.1604 318949.0313 -845077.875)">
					<stop  offset="0" style="stop-color:#F6871F"/>
					<stop  offset="0.1574" style="stop-color:#F6871F"/>
					<stop  offset="0.2332" style="stop-color:#F78D29"/>
					<stop  offset="0.3742" style="stop-color:#F89B46"/>
					<stop  offset="0.5649" style="stop-color:#FBB475"/>
					<stop  offset="0.7951" style="stop-color:#FED8B5"/>
					<stop  offset="1" style="stop-color:#FFFFFF"/>
				</linearGradient>
				<polygon clip-path="url(#SVGID_41_)" fill="url(#SVGID_42_)" points="1071.448,626.487 799.192,533.353 870.762,324.133 
					1143.018,417.268 				"/>
			</g>
		</g>
		<g clip-path="url(#SVGID_2_)">
			<defs>
				<rect id="SVGID_43_" x="858.153" y="516.92" width="163.482" height="47.04"/>
			</defs>
			<clipPath id="SVGID_44_">
				<use xlink:href="#SVGID_43_"  overflow="visible"/>
			</clipPath>
			<g clip-path="url(#SVGID_44_)">
				<defs>
					<path id="SVGID_45_" d="M858.153,561.507c34.553,3.308,104.367,2.962,123.477,0.765c15.68-14.338,27.986-28.295,40.002-45.356
						c-25.883,12.853-130.795,39.45-130.795,39.45S877.45,560.845,858.153,561.507"/>
				</defs>
				<clipPath id="SVGID_46_">
					<use xlink:href="#SVGID_45_"  overflow="visible"/>
				</clipPath>
				
					<linearGradient id="SVGID_47_" gradientUnits="userSpaceOnUse" x1="52.1396" y1="1765.0859" x2="53.1388" y2="1765.0859" gradientTransform="matrix(-217.9196 -165.6017 -154.4275 203.2153 284999.0313 -349426.9688)">
					<stop  offset="0" style="stop-color:#72BF44"/>
					<stop  offset="0.1574" style="stop-color:#72BF44"/>
					<stop  offset="0.2422" style="stop-color:#88C65A"/>
					<stop  offset="0.5117" style="stop-color:#C6E1AE"/>
					<stop  offset="0.6973" style="stop-color:#ECF5E5"/>
					<stop  offset="0.7828" style="stop-color:#FFFFFF"/>
					<stop  offset="1" style="stop-color:#FFFFFF"/>
				</linearGradient>
				<polygon clip-path="url(#SVGID_46_)" fill="url(#SVGID_47_)" points="961.786,643.568 835.079,547.279 917.999,438.162 
					1044.708,534.45 				"/>
			</g>
		</g>
		<g clip-path="url(#SVGID_2_)">
			<defs>
				<rect id="SVGID_48_" x="859.329" y="426.97" width="112.969" height="104.771"/>
			</defs>
			<clipPath id="SVGID_49_">
				<use xlink:href="#SVGID_48_"  overflow="visible"/>
			</clipPath>
			<g clip-path="url(#SVGID_49_)">
				<defs>
					<path id="SVGID_50_" d="M859.329,531.741c24.449-13.041,91.951-55.701,105.236-63.904c3.32-12.084,8.113-27.508,7.709-40.871
						c-9.715,14.705-91.359,83.759-91.359,83.759S866.167,525.414,859.329,531.741"/>
				</defs>
				<clipPath id="SVGID_51_">
					<use xlink:href="#SVGID_50_"  overflow="visible"/>
				</clipPath>
				
					<linearGradient id="SVGID_52_" gradientUnits="userSpaceOnUse" x1="52.9224" y1="1765.3184" x2="53.9211" y2="1765.3184" gradientTransform="matrix(-324.0244 33.178 23.185 226.4284 -22687.166 -401012.875)">
					<stop  offset="0" style="stop-color:#5C99D2"/>
					<stop  offset="0.1574" style="stop-color:#5C99D2"/>
					<stop  offset="1" style="stop-color:#FFFFFF"/>
				</linearGradient>
				<polygon clip-path="url(#SVGID_51_)" fill="url(#SVGID_52_)" points="983.295,530.654 860.504,543.227 848.711,428.053 
					971.502,415.48 				"/>
			</g>
		</g>
		<g clip-path="url(#SVGID_2_)">
			<defs>
				<rect id="SVGID_53_" x="1092.206" y="363.43" width="116.949" height="113.11"/>
			</defs>
			<clipPath id="SVGID_54_">
				<use xlink:href="#SVGID_53_"  overflow="visible"/>
			</clipPath>
			<g clip-path="url(#SVGID_54_)">
				<defs>
					<path id="SVGID_55_" d="M1177.292,449.009c-20.924,5.277-65.115,22.907-85.082,27.536
						c20.801-22.743,34.277-50.544,46.607-76.612c23.484-11.585,52.17-25.23,70.338-36.501
						C1201.625,389.041,1189.475,420.959,1177.292,449.009"/>
				</defs>
				<clipPath id="SVGID_56_">
					<use xlink:href="#SVGID_55_"  overflow="visible"/>
				</clipPath>
				
					<linearGradient id="SVGID_57_" gradientUnits="userSpaceOnUse" x1="52.8589" y1="1764.5625" x2="53.8589" y2="1764.5625" gradientTransform="matrix(-517.2064 84.4439 84.4439 517.2064 -120450.8594 -916697.25)">
					<stop  offset="0" style="stop-color:#F6871F"/>
					<stop  offset="0.1574" style="stop-color:#F6871F"/>
					<stop  offset="0.2332" style="stop-color:#F78D29"/>
					<stop  offset="0.3742" style="stop-color:#F89B46"/>
					<stop  offset="0.5649" style="stop-color:#FBB475"/>
					<stop  offset="0.7951" style="stop-color:#FED8B5"/>
					<stop  offset="1" style="stop-color:#FFFFFF"/>
				</linearGradient>
				<polygon clip-path="url(#SVGID_56_)" fill="url(#SVGID_57_)" points="1227.143,473.608 1095.247,495.143 1074.221,366.369 
					1206.118,344.834 				"/>
			</g>
		</g>
		<g clip-path="url(#SVGID_2_)">
			<defs>
				<rect id="SVGID_58_" x="1006.405" y="478.6" width="172.189" height="92.541"/>
			</defs>
			<clipPath id="SVGID_59_">
				<use xlink:href="#SVGID_58_"  overflow="visible"/>
			</clipPath>
			<g clip-path="url(#SVGID_59_)">
				<defs>
					<path id="SVGID_60_" d="M1117.959,564.259c-39.588,3.03-111.551,6.884-111.551,6.884s45.102-48.659,55.08-66.783
						c36.895-7.466,76.264-16.341,117.102-25.764C1167.497,502.549,1134.717,539.821,1117.959,564.259"/>
				</defs>
				<clipPath id="SVGID_61_">
					<use xlink:href="#SVGID_60_"  overflow="visible"/>
				</clipPath>
				
					<linearGradient id="SVGID_62_" gradientUnits="userSpaceOnUse" x1="52.7622" y1="1764.1338" x2="53.7622" y2="1764.1338" gradientTransform="matrix(-1456.225 487.9551 627.3329 1872.1759 -1027951.625 -3328266.5)">
					<stop  offset="0" style="stop-color:#5C99D2"/>
					<stop  offset="0.1574" style="stop-color:#5C99D2"/>
					<stop  offset="1" style="stop-color:#FFFFFF"/>
				</linearGradient>
				<polygon clip-path="url(#SVGID_61_)" fill="url(#SVGID_62_)" points="1206.469,561.8 1023.79,623.013 978.53,487.938 
					1161.209,426.726 				"/>
			</g>
		</g>
	</g>
	<g>
		<defs>
			<polygon id="SVGID_63_" points="1.001,698.193 0.575,865.946 0.575,938.047 724.156,658.416 715.769,547.663 			"/>
		</defs>
		<clipPath id="SVGID_64_">
			<use xlink:href="#SVGID_63_"  overflow="visible"/>
		</clipPath>
		<path clip-path="url(#SVGID_64_)" fill="#FFFFFF" d="M-356.424,883.798c0,0,0.133-0.164,0.395-0.485
			c0.276-0.33,0.688-0.823,1.232-1.475c1.067-1.269,2.664-3.091,4.785-5.425c4.235-4.669,10.628-11.286,19.173-19.246
			c8.535-7.967,19.281-17.212,32.198-27.033c6.429-4.95,13.48-9.931,20.976-15.082c7.573-5.034,15.594-10.245,24.208-15.274
			c17.176-10.131,36.386-20.119,57.458-28.932c21.045-8.856,43.858-16.721,67.951-22.962c3.025-0.726,6.062-1.454,9.111-2.185
			c1.525-0.366,3.052-0.731,4.582-1.098l2.299-0.545l2.319-0.477c3.094-0.633,6.199-1.268,9.314-1.906
			c1.558-0.318,3.118-0.637,4.68-0.956c1.573-0.267,3.148-0.534,4.725-0.803c3.154-0.534,6.318-1.071,9.49-1.608l2.381-0.404
			l2.4-0.357c1.587-0.23,3.176-0.46,4.766-0.691c3.186-0.451,6.361-0.944,9.577-1.366c3.216-0.423,6.439-0.845,9.668-1.27
			c12.916-1.629,25.94-3.1,39.049-4.276c13.103-1.219,26.276-2.213,39.458-2.984c26.362-1.607,52.755-2.33,78.71-2.788
			c25.956-0.471,51.485-0.623,76.133-1.687c24.626-1.09,48.449-3.11,70.477-8.016c2.736-0.67,5.474-1.261,8.156-1.982
			c2.668-0.76,5.357-1.418,7.955-2.25c2.627-0.814,5.235-1.623,7.822-2.426c1.293-0.401,2.582-0.802,3.864-1.201
			c1.27-0.428,2.534-0.854,3.792-1.279c5.036-1.698,9.994-3.35,14.807-5.146c2.413-0.877,4.803-1.748,7.17-2.609
			c2.352-0.904,4.68-1.799,6.985-2.684c18.429-7.104,35.06-14.309,49.885-20.5c14.816-6.214,27.864-11.354,38.821-14.985
			c10.938-3.712,19.819-5.646,25.86-6.919c3.044-0.53,5.393-0.853,6.967-1.109c1.577-0.244,2.391-0.37,2.391-0.37
			s-0.812,0.136-2.387,0.399c-1.571,0.275-3.915,0.624-6.949,1.189c-6.024,1.344-14.867,3.381-25.744,7.217
			c-10.898,3.756-23.864,9.041-38.598,15.427c-14.743,6.364-31.294,13.768-49.675,21.106c-2.299,0.914-4.622,1.838-6.968,2.771
			c-2.362,0.891-4.748,1.792-7.156,2.701c-4.801,1.856-9.764,3.576-14.807,5.344c-1.26,0.441-2.526,0.886-3.797,1.332
			c-1.278,0.413-2.562,0.828-3.85,1.245c-2.577,0.834-5.175,1.674-7.793,2.52c-2.634,0.878-5.327,1.569-8.02,2.371
			c-2.701,0.761-5.457,1.392-8.214,2.101c-22.182,5.215-46.139,7.527-70.837,8.914c-24.721,1.36-50.271,1.814-76.194,2.592
			c-25.924,0.767-52.235,1.801-78.478,3.712c-13.123,0.924-26.226,2.069-39.252,3.438c-13.029,1.324-25.981,2.944-38.789,4.714
			c-3.197,0.457-6.388,0.914-9.572,1.371c-3.183,0.455-6.372,0.989-9.546,1.479c-1.588,0.25-3.173,0.499-4.757,0.748l-2.349,0.378
			l-2.347,0.426c-3.126,0.569-6.244,1.136-9.352,1.702c-1.554,0.281-3.105,0.564-4.654,0.846c-1.539,0.333-3.075,0.666-4.609,0.999
			c-3.067,0.666-6.123,1.329-9.169,1.991l-2.282,0.495l-2.261,0.565c-1.505,0.379-3.007,0.758-4.507,1.137
			c-2.998,0.756-5.985,1.51-8.96,2.26c-23.684,6.438-46.059,14.45-66.663,23.41c-20.632,8.915-39.398,18.961-56.151,29.111
			c-8.402,5.039-16.214,10.25-23.587,15.275c-7.294,5.143-14.151,10.107-20.392,15.033c-12.544,9.773-22.949,18.943-31.179,26.812
			c-8.24,7.86-14.374,14.362-18.385,18.894c-2.007,2.262-3.512,4.021-4.485,5.207c-0.473,0.579-0.832,1.019-1.072,1.313
			c-0.246,0.311-0.371,0.467-0.371,0.467L-356.424,883.798z"/>
		<path clip-path="url(#SVGID_64_)" fill="none" stroke="#FFFFFF" stroke-width="8" stroke-miterlimit="10" d="M-215.914,918.142
			c0,0,71.69-37.129,123.095-39.78c49.29-2.544,151.443-19.739,207.412-47.074c53.504-26.132,94.4-65.545,147.508-97.255
			c41.246-24.628,80.144-44.832,131.22-44.808"/>
		<path clip-path="url(#SVGID_64_)" fill="#FFFFFF" d="M-181.012,809.742c0,0,1.267-0.066,3.718-0.195
			c1.224-0.064,2.742-0.145,4.544-0.238c1.79-0.098,3.707-0.244,5.959-0.391c8.938-0.617,22.282-1.711,39.049-3.9
			c16.564-2.163,36.489-5.419,58.89-10.206c22.002-4.687,46.282-10.847,71.976-18.403c25.178-7.384,51.635-16.072,78.916-25.482
			c26.702-9.163,54.119-19.061,82.451-28.28c13.915-4.507,28.054-8.836,42.484-12.546c7.145-1.83,14.356-3.514,21.633-4.924
			c3.623-0.688,7.251-1.344,10.897-1.885c3.607-0.57,7.333-0.998,10.785-1.414c27.77-3.308,55.135-5.987,81.77-8.672
			c25.951-2.61,51.228-5.17,75.504-8.097c23.684-2.866,46.469-6.035,67.935-10.144c10.549-2.043,20.787-4.33,30.593-7.031
			c1.212-0.359,2.42-0.716,3.622-1.072c1.213-0.357,2.423-0.711,3.589-1.107c2.347-0.771,4.679-1.514,6.984-2.356
			c1.152-0.408,2.299-0.813,3.441-1.219c1.133-0.429,2.261-0.856,3.384-1.281c2.249-0.832,4.457-1.718,6.645-2.597
			c17.324-6.996,32.991-14.572,47.073-21.68c13.867-7.054,26.231-13.748,36.986-19.725c10.638-5.915,19.739-11.146,27.155-15.439
			c7.356-4.27,13.096-7.601,16.991-9.86c3.881-2.25,6.002-3.353,6.002-3.353s-2.105,1.129-5.953,3.428
			c-3.861,2.308-9.553,5.711-16.845,10.07c-7.353,4.387-16.379,9.73-26.935,15.78c-10.672,6.114-22.946,12.967-36.735,20.207
			c-14.006,7.298-29.596,15.089-46.96,22.364c-2.193,0.915-4.408,1.836-6.67,2.705c-1.129,0.445-2.263,0.891-3.403,1.339
			c-1.151,0.425-2.307,0.851-3.468,1.28c-2.312,0.879-4.703,1.677-7.104,2.498c-1.206,0.426-2.406,0.793-3.612,1.166
			c-1.219,0.377-2.442,0.756-3.671,1.138c-9.917,2.894-20.244,5.366-30.873,7.596c-21.624,4.483-44.529,8.033-68.312,11.291
			c-24.377,3.328-49.729,6.302-75.707,9.331c-26.657,3.114-53.998,6.23-81.563,9.955c-3.566,0.48-6.873,0.931-10.297,1.538
			c-3.412,0.571-6.832,1.261-10.251,1.977c-6.871,1.468-13.736,3.208-20.573,5.099c-13.803,3.83-27.479,8.299-41.017,12.972
			c-27.556,9.551-54.566,19.887-81.082,29.56c-27.094,9.928-53.644,19.219-79.173,27.236c-26.058,8.205-50.995,15.048-73.846,20.372
			c-23.277,5.44-44.269,9.294-61.856,11.937c-17.877,2.687-32.022,4.135-41.914,5.017c-2.476,0.21-4.753,0.422-6.572,0.558
			c-1.811,0.133-3.337,0.242-4.567,0.332c-2.463,0.18-3.737,0.272-3.737,0.272L-181.012,809.742z"/>
		<path clip-path="url(#SVGID_64_)" fill="#72BF45" d="M-479.001,1051.974c0,0,0.263-0.308,0.78-0.915
			c0.496-0.564,1.235-1.407,2.21-2.519c1.947-2.188,4.847-5.387,8.77-9.507c7.821-8.213,19.616-20.084,36.084-34.8
			c16.32-14.559,37.099-31.852,63.375-50.63c25.827-18.43,56.889-38.227,94.116-56.979c18.271-9.157,37.909-18.035,58.912-26.037
			c20.662-7.882,42.54-14.932,65.134-20.628c2.803-0.68,5.609-1.36,8.419-2.042c2.809-0.654,5.631-1.267,8.45-1.902
			c2.812-0.637,5.645-1.174,8.471-1.765l2.118-0.433c0.865-0.181,1.409-0.273,2.13-0.413l4.074-0.775
			c10.753-2.07,21.794-4.097,32.782-6.064c21.642-3.858,43.362-7.435,65.03-10.735c42.191-6.442,84.123-11.777,125.043-16.599
			c39.48-4.68,78.051-8.84,115.248-14.006c18.122-2.523,35.931-5.338,53.317-8.709l6.438-1.289c2.058-0.405,4.286-0.9,6.412-1.345
			l6.408-1.366l6.298-1.401c8.339-1.857,16.615-3.836,24.763-5.854c31.981-7.982,62.307-17.188,90.391-27.198
			c27.351-9.709,52.677-20.179,75.795-30.553c11.37-5.091,22.228-10.171,32.591-15.103c1.287-0.614,2.567-1.226,3.841-1.832
			c1.248-0.621,2.49-1.239,3.724-1.853c0.619-0.313,1.254-0.615,1.856-0.933l1.784-0.953c1.185-0.637,2.368-1.253,3.535-1.897
			c2.313-1.332,4.638-2.592,6.853-3.957c1.114-0.67,2.222-1.336,3.322-1.998c1.083-0.685,2.159-1.364,3.229-2.04
			c8.51-5.395,16.265-10.954,23.401-16.376c7.088-5.391,13.569-10.668,19.509-15.695c11.774-9.982,21.476-18.988,29.334-26.389
			c7.791-7.359,13.79-13.176,17.977-17.055c2.095-1.931,3.723-3.394,4.874-4.35c0.556-0.486,1.028-0.831,1.322-1.072
			c0.301-0.238,0.453-0.359,0.453-0.359l0.807,0.828c0,0-0.144,0.117-0.427,0.349c-0.28,0.237-0.714,0.561-1.254,1.047
			c-1.101,0.94-2.687,2.407-4.732,4.347c-4.095,3.905-9.987,9.785-17.658,17.243c-7.736,7.501-17.3,16.642-28.956,26.812
			c-5.881,5.123-12.309,10.511-19.363,16.033c-7.103,5.556-14.842,11.271-23.397,16.86c-1.076,0.7-2.159,1.405-3.248,2.114
			c-1.11,0.689-2.226,1.382-3.35,2.078c-2.232,1.42-4.588,2.74-6.929,4.129c-1.191,0.68-2.418,1.34-3.637,2.017l-1.841,1.015
			c-0.616,0.334-1.23,0.638-1.848,0.959c-1.25,0.644-2.507,1.289-3.771,1.94c-1.266,0.625-2.538,1.254-3.818,1.886
			c-10.3,5.08-21.11,10.323-32.453,15.592c-23.058,10.735-48.408,21.636-75.882,31.821c-28.209,10.501-58.769,20.253-91.066,28.806
			c-8.24,2.166-16.57,4.283-25.049,6.301l-6.413,1.523l-6.409,1.465c-2.167,0.484-4.241,0.978-6.502,1.461l-6.579,1.418
			c-17.754,3.714-35.854,6.848-54.192,9.683c-37.649,5.806-76.365,10.575-115.779,15.854
			c-40.838,5.441-82.438,11.377-124.104,18.378c-21.389,3.586-42.776,7.435-64.042,11.551c-10.747,2.091-21.391,4.205-32.226,6.456
			l-4.06,0.835c-0.635,0.133-1.448,0.291-1.935,0.403l-1.943,0.425c-2.591,0.577-5.188,1.101-7.763,1.721
			c-2.582,0.616-5.16,1.231-7.735,1.845c-2.568,0.658-5.134,1.315-7.696,1.971c-20.629,5.482-40.554,12.182-59.404,19.649
			c-19.132,7.569-37.062,15.957-53.781,24.617c-34.014,17.706-62.592,36.47-86.365,53.978c-24.159,17.815-43.3,34.262-58.275,48.067
			c-15.102,13.946-25.86,25.16-32.89,32.808c-3.527,3.838-6.094,6.776-7.773,8.732c-1.586,1.889-2.405,2.865-2.405,2.865
			L-479.001,1051.974z"/>
		<path clip-path="url(#SVGID_64_)" fill="#E4E41F" d="M-425.359,992.623c0,0,0.251-0.294,0.744-0.874
			c0.476-0.544,1.185-1.354,2.121-2.423c1.872-2.107,4.663-5.19,8.44-9.161c7.531-7.914,18.898-19.354,34.761-33.5
			c15.724-13.997,35.745-30.602,61.049-48.562c24.883-17.628,54.786-36.512,90.628-54.25c17.587-8.668,36.494-17.039,56.721-24.521
			c19.899-7.375,40.962-13.943,62.744-19.13c5.391-1.262,10.807-2.485,16.262-3.586c2.71-0.586,5.442-1.069,8.168-1.59l4.135-0.772
			l3.947-0.687c5.266-0.906,10.482-1.845,15.813-2.73c5.303-0.879,10.613-1.759,15.929-2.641
			c20.966-3.402,42.015-6.524,63.022-9.377c40.92-5.571,81.617-10.053,121.363-14.039c38.368-3.877,75.878-7.252,112.089-11.611
			c8.861-1.073,17.645-2.23,26.344-3.462c8.624-1.256,17.167-2.583,25.608-4.066l6.278-1.145l3.044-0.565l1.571-0.32l0.784-0.162
			l0.713-0.164c3.807-0.856,7.783-1.979,11.595-3.249c7.637-2.55,15.024-5.779,22.118-9.33c14.066-7.07,27.005-15.361,39.407-23.679
			c12.279-8.246,24.034-16.635,36.033-24.446c5.958-3.868,11.976-7.599,18.238-10.974c3.119-1.676,6.288-3.271,9.556-4.707
			c1.632-0.711,3.275-1.398,4.953-2.021c0.843-0.328,1.652-0.594,2.553-0.914l2.412-0.794c6.529-2.135,12.962-3.903,19.285-5.542
			c6.282-1.621,12.453-3.085,18.5-4.47c23.796-5.441,45.797-9.706,65.25-15.215c4.791-1.367,9.421-2.823,13.817-4.459
			c2.197-0.801,4.312-1.685,6.365-2.6c2.041-0.939,4.162-1.912,6.152-2.867c7.956-3.822,15.349-7.713,22.01-11.637
			c13.246-7.725,23.815-15.512,31.997-22.236c8.111-6.693,13.993-12.332,18.149-16.049c2.064-1.861,3.698-3.253,4.835-4.16
			c0.559-0.462,1.007-0.791,1.301-1.018s0.444-0.34,0.444-0.34l0.699,0.746c0,0-0.143,0.113-0.425,0.337
			c-0.28,0.225-0.706,0.551-1.244,1.011c-1.091,0.905-2.669,2.3-4.679,4.182c-4.048,3.758-9.822,9.506-17.854,16.389
			c-8.101,6.912-18.622,14.967-31.87,23.014c-6.673,4.093-14.039,8.143-22.072,12.178c-2.03,1.017-4.026,1.98-6.16,3.002
			c-2.163,0.989-4.376,1.937-6.645,2.789c-4.547,1.741-9.275,3.274-14.14,4.715c-19.732,5.789-41.756,10.274-65.378,15.922
			c-5.996,1.434-12.096,2.943-18.269,4.601c-6.205,1.672-12.509,3.474-18.753,5.582l-2.402,0.815
			c-0.692,0.261-1.497,0.533-2.236,0.834c-1.512,0.58-3.014,1.23-4.513,1.906c-3.002,1.361-5.967,2.898-8.907,4.526
			c-5.906,3.276-11.691,6.957-17.46,10.807c-11.627,7.777-23.193,16.253-35.423,24.693c-12.368,8.516-25.403,17.127-40.046,24.719
			c-7.395,3.814-15.223,7.364-23.546,10.257c-4.209,1.455-8.433,2.717-12.939,3.787l-0.848,0.205l-0.784,0.17l-1.568,0.342
			l-3.259,0.651l-6.4,1.255c-8.598,1.629-17.277,3.098-26.029,4.493c-8.821,1.37-17.716,2.665-26.67,3.873
			c-36.594,4.913-74.228,8.821-112.535,13.226c-39.673,4.532-80.082,9.545-120.546,15.614c-20.766,3.107-41.528,6.476-62.17,10.11
			c-5.196,0.933-10.386,1.865-15.569,2.795c-5.199,0.935-10.484,1.958-15.709,2.93l-3.935,0.739l-3.739,0.746
			c-2.525,0.514-5.052,0.989-7.559,1.563c-5.043,1.077-10.046,2.271-15.023,3.494c-20.09,5.03-39.476,11.322-57.819,18.363
			c-18.62,7.132-36.061,15.103-52.319,23.363c-33.087,16.874-60.863,34.897-83.985,51.758
			c-23.491,17.152-42.108,33.045-56.679,46.408c-14.694,13.499-25.172,24.381-32.024,31.815c-3.438,3.73-5.943,6.591-7.584,8.499
			c-1.557,1.853-2.362,2.809-2.362,2.809L-425.359,992.623z"/>
		<path clip-path="url(#SVGID_64_)" fill="#FFFFFF" d="M-493.897,1002.786l-5.355-2.186c0.975-0.591,96.263-58.165,231.771-118.778
			c73.951-33.079,144.491-60.176,209.953-81.004C19.85,776.2,90.671,760.209,153.733,752.506
			c259.443-31.695,349.105-64.342,383.677-86.108c12.59-7.927,38.04-23.205,66.726-40.428
			c62.78-37.69,142.59-85.605,160.424-100.156l1.633,1.78c-17.979,14.698-97.753,62.713-160.507,100.484
			c-28.609,17.22-53.989,32.495-66.513,40.4c-64.175,40.505-233.885,68.584-385.638,87.349
			c-62.489,7.725-132.663,23.678-209.331,48.18c-64.94,20.752-134.912,47.733-208.263,80.651
			C-398.503,944.992-492.931,1002.199-493.897,1002.786"/>
		<path clip-path="url(#SVGID_64_)" fill="#E4E41F" d="M-441.997,876.992c0,0,0.453-0.229,1.346-0.679
			c0.923-0.458,2.3-1.141,4.114-2.039c3.574-1.761,8.864-4.315,15.806-7.565c13.772-6.467,34.002-15.593,60.008-26.436
			c12.803-5.375,27.06-11.068,42.5-17.115c15.363-5.889,31.836-12.143,49.526-18.389c17.389-6.26,35.951-12.455,55.321-18.774
			c19.202-6.065,39.158-12.272,59.97-18.078c20.412-5.856,41.609-11.292,63.248-16.596c5.375-1.249,10.772-2.503,16.19-3.761
			c2.7-0.627,5.405-1.254,8.116-1.881c2.717-0.582,5.439-1.166,8.165-1.75c5.434-1.162,10.886-2.328,16.353-3.498
			c5.464-1.071,10.943-2.146,16.434-3.222c10.894-2.224,21.917-4.005,32.939-5.971c2.738-0.503,5.49-0.914,8.242-1.338
			c2.745-0.425,5.491-0.849,8.24-1.273c2.741-0.423,5.484-0.846,8.229-1.27l4.11-0.636l4.112-0.549
			c10.909-1.422,21.832-3.01,32.753-4.104c5.421-0.583,10.846-1.229,16.261-1.761c5.386-0.465,10.77-0.932,16.15-1.397
			c2.681-0.231,5.36-0.465,8.039-0.696c2.664-0.166,5.326-0.33,7.988-0.496c5.303-0.328,10.602-0.656,15.894-0.983
			c5.257-0.273,10.481-0.401,15.711-0.608c5.188-0.17,10.428-0.419,15.54-0.499c20.299-0.44,40.459-0.877,60.398-1.309
			c38.765-0.849,76.694-1.685,113.359-3.095c17.839-0.697,35.387-1.519,52.607-2.666c4.258-0.293,8.493-0.565,12.711-0.906
			l6.287-0.49l6.244-0.543c4.136-0.339,8.257-0.792,12.35-1.178c4.078-0.469,8.132-0.858,12.164-1.389
			c8.012-0.951,15.934-2.135,23.74-3.468c7.744-1.312,15.374-2.926,22.83-4.834c7.392-1.907,14.632-4.151,21.489-6.979l2.542-1.082
			c0.415-0.178,0.863-0.361,1.249-0.536l1.266-0.591c1.684-0.786,3.362-1.57,5.035-2.352c1.679-0.77,3.316-1.572,4.945-2.375
			c1.63-0.798,3.254-1.593,4.871-2.386c12.829-6.383,25.045-13.032,36.7-19.683c11.519-6.58,22.502-13.184,32.968-19.688
			c20.614-12.803,39.258-25.29,55.895-36.914c16.34-11.46,30.806-22.14,43.186-31.762c6.151-4.747,11.767-9.276,16.912-13.462
			c5.082-4.2,9.697-8.07,13.755-11.64c8.096-7.069,14.126-12.855,18.073-16.893c0.979-1.011,1.844-1.904,2.59-2.674
			c0.718-0.789,1.321-1.453,1.808-1.988c0.972-1.068,1.473-1.619,1.473-1.619s-0.495,0.554-1.458,1.629
			c-0.481,0.538-1.08,1.207-1.792,2.002c-0.738,0.776-1.595,1.675-2.565,2.693c-3.913,4.066-9.896,9.9-17.935,17.032
			c-4.029,3.601-8.612,7.507-13.662,11.747c-5.11,4.225-10.689,8.798-16.802,13.592c-12.301,9.718-26.68,20.509-42.931,32.095
			c-16.544,11.753-35.089,24.384-55.618,37.355c-10.422,6.589-21.365,13.284-32.854,19.966
			c-11.626,6.753-23.817,13.511-36.668,20.029c-1.627,0.812-3.26,1.627-4.899,2.445c-1.64,0.823-3.288,1.647-4.952,2.426
			c-1.665,0.793-3.335,1.588-5.011,2.387l-1.259,0.6c-0.462,0.214-0.878,0.387-1.32,0.581l-2.624,1.142
			c-7.071,2.979-14.475,5.332-22.003,7.338c-7.593,2.008-15.335,3.709-23.171,5.102c-7.899,1.415-15.905,2.677-23.985,3.703
			c-4.072,0.57-8.153,0.996-12.267,1.503c-4.121,0.424-8.277,0.914-12.439,1.29l-6.288,0.6l-6.327,0.547
			c-4.246,0.379-8.504,0.689-12.787,1.021c-17.32,1.3-34.95,2.274-52.864,3.128c-36.819,1.73-74.864,2.896-113.72,4.081
			c-19.98,0.604-40.18,1.217-60.52,1.833c-5.155,0.125-10.275,0.415-15.426,0.628c-5.172,0.249-10.338,0.419-15.534,0.733
			c-5.231,0.367-10.467,0.736-15.707,1.104c-2.629,0.187-5.26,0.371-7.891,0.558c-2.645,0.25-5.291,0.502-7.938,0.754
			c-5.312,0.505-10.627,1.01-15.942,1.515c-5.344,0.569-10.697,1.251-16.044,1.871c-10.77,1.168-21.539,2.827-32.289,4.315
			l-4.05,0.575l-4.05,0.659c-2.703,0.441-5.405,0.88-8.106,1.32c-2.706,0.439-5.411,0.881-8.114,1.32
			c-2.709,0.44-5.417,0.866-8.113,1.385c-10.85,2.027-21.694,3.869-32.409,6.147c-5.401,1.104-10.787,2.205-16.159,3.304
			c-5.374,1.194-10.732,2.388-16.072,3.576c-2.679,0.596-5.353,1.189-8.023,1.783c-2.662,0.641-5.319,1.279-7.972,1.917
			c-5.32,1.281-10.62,2.558-15.898,3.828c-21.241,5.392-42.031,10.897-62.04,16.817c-20.395,5.865-39.936,12.119-58.725,18.223
			c-18.947,6.354-37.092,12.572-54.075,18.846c-17.272,6.258-33.339,12.512-48.313,18.394
			c-15.039,6.036-28.916,11.711-41.355,17.057c-25.26,10.783-44.842,19.82-58.066,26.17c-6.664,3.192-11.716,5.686-15.069,7.373
			c-3.311,1.686-5.023,2.556-5.023,2.556L-441.997,876.992z"/>
		<path clip-path="url(#SVGID_64_)" fill="#F36F24" d="M-148.675,938.809c0,0,0.344-0.135,1.021-0.402
			c0.69-0.28,1.72-0.7,3.077-1.253c2.738-1.135,6.81-2.864,12.048-5.217c10.406-4.679,25.365-11.813,43.301-21.54
			c17.694-9.589,38.192-21.7,59.643-36.343c21.114-14.4,43.144-31.236,64.218-50.274c2.568-2.375,5.159-4.77,7.77-7.184
			c2.591-2.416,5.077-4.893,7.652-7.366c2.599-2.46,4.985-5.011,7.516-7.541l1.877-1.907l1.024-1.037l0.972-0.959
			c1.297-1.277,2.599-2.56,3.905-3.846c1.319-1.285,2.581-2.574,3.96-3.867c1.459-1.293,2.923-2.591,4.392-3.892
			c1.469-1.298,2.943-2.599,4.421-3.904c1.567-1.247,3.138-2.499,4.714-3.753c1.577-1.251,3.158-2.504,4.744-3.761
			c1.68-1.206,3.364-2.415,5.052-3.627c1.703-1.199,3.34-2.444,5.109-3.613c1.784-1.157,3.571-2.315,5.363-3.477
			c14.306-9.177,30.326-17.453,47.418-24.308c16.824-6.787,34.439-12.463,52.285-17.012c34.889-9.039,70.189-14.246,104.485-20.133
			c16.734-2.916,33.322-6.021,49.348-10.406c15.724-4.431,31.025-10.066,45.212-16.922c7.035-3.391,13.815-7.066,20.418-10.916
			c6.574-3.809,13.011-7.758,19.613-11.506c6.546-3.735,13.323-7.204,20.322-10.139c6.966-2.89,14.123-5.23,21.283-7.022
			c7.11-1.785,14.209-3.047,21.196-3.968l2.605-0.346l2.592-0.281c1.708-0.189,3.411-0.377,5.109-0.564
			c1.697-0.195,3.388-0.391,5.074-0.585l2.521-0.29l2.489-0.372c13.152-1.887,26.032-4.668,38.383-7.864
			c3.059-0.83,6.105-1.606,9.111-2.463c2.992-0.871,5.962-1.734,8.908-2.592c2.922-0.916,5.822-1.824,8.697-2.725
			c2.867-0.901,5.685-1.885,8.494-2.809c11.122-3.779,21.789-7.729,31.965-11.778c10.055-4.032,19.662-8.099,28.781-12.177
			c9.013-4.076,17.604-8.062,25.673-12.064c15.968-7.826,30.069-15.477,42.219-22.434c11.991-6.875,22.069-13.215,30.141-18.584
			c7.996-5.333,14.057-9.74,18.053-12.86c2.023-1.518,3.496-2.768,4.516-3.577c1.012-0.817,1.531-1.238,1.531-1.238
			s-0.518,0.425-1.521,1.248c-1.014,0.816-2.479,2.076-4.49,3.608c-3.975,3.147-10.005,7.597-17.967,12.987
			c-8.036,5.427-18.075,11.838-30.026,18.801c-12.109,7.046-26.167,14.799-42.099,22.744c-8.049,4.062-16.622,8.111-25.621,12.256
			c-9.104,4.146-18.7,8.287-28.75,12.398c-10.17,4.129-20.84,8.163-31.975,12.033c-2.813,0.95-5.635,1.955-8.508,2.88
			c-2.882,0.925-5.788,1.858-8.717,2.798c-2.956,0.883-5.934,1.772-8.936,2.668c-3.016,0.883-6.076,1.686-9.148,2.541
			c-12.429,3.308-25.329,6.197-38.724,8.217l-2.532,0.396l-2.521,0.309c-1.687,0.207-3.378,0.414-5.075,0.621
			c-1.702,0.201-3.41,0.402-5.124,0.604l-2.555,0.296l-2.564,0.36c-6.873,0.954-13.824,2.243-20.742,4.034
			c-6.967,1.797-13.884,4.113-20.612,6.957c-6.762,2.894-13.313,6.302-19.727,10.021c-6.463,3.729-12.848,7.71-19.444,11.595
			c-6.62,3.922-13.492,7.715-20.639,11.219c-14.446,7.103-29.974,12.949-46.053,17.602c-16.379,4.604-33.137,7.855-49.939,10.909
			c-17.088,3.075-34.283,5.92-51.469,9.163c-17.467,3.26-34.918,6.996-52.095,11.539c-17.452,4.578-34.512,10.219-50.689,16.877
			c-16.428,6.722-31.675,14.752-45.252,23.604c-1.7,1.12-3.396,2.237-5.088,3.352c-1.677,1.127-3.225,2.326-4.839,3.482
			c-1.599,1.166-3.195,2.329-4.787,3.489c-1.5,1.21-2.996,2.417-4.488,3.621c-1.492,1.206-2.98,2.407-4.463,3.606
			c-1.371,1.232-2.737,2.461-4.1,3.686c-1.364,1.225-2.725,2.445-4.082,3.663c-1.322,1.261-2.588,2.575-3.878,3.854
			c-1.285,1.287-2.566,2.57-3.842,3.849l-0.956,0.959l-0.86,0.889l-1.877,1.939c-2.531,2.575-4.918,5.17-7.52,7.676
			c-2.577,2.519-5.066,5.041-7.662,7.502c-2.617,2.46-5.213,4.9-7.787,7.32c-21.13,19.412-43.292,36.633-64.593,51.396
			c-21.643,15.016-42.387,27.482-60.361,37.391c-18.224,10.055-33.502,17.478-44.244,22.397c-5.409,2.475-9.657,4.315-12.575,5.549
			c-1.462,0.62-2.577,1.075-3.374,1.4c-0.782,0.313-1.18,0.474-1.18,0.474L-148.675,938.809z"/>
		<path clip-path="url(#SVGID_64_)" fill="#FBB317" d="M-316.761,988.688c0,0,1.428-0.972,4.19-2.85
			c2.757-1.855,6.843-4.578,12.239-8.067c10.714-6.951,26.521-16.916,47.075-29.062c20.259-11.971,44.958-26.014,73.788-41.085
			c3.563-1.859,7.174-3.745,10.831-5.654c3.69-1.871,7.425-3.766,11.204-5.683c7.484-3.853,15.35-7.619,23.277-11.544
			c15.88-7.636,32.488-15.473,49.987-23.139c17.176-7.663,35.213-15.104,53.76-22.478c9.252-3.537,18.512-7.226,28.052-10.623
			c4.729-1.707,9.438-3.486,14.232-5.152c4.783-1.645,9.582-3.295,14.395-4.951c4.773-1.688,9.645-3.211,14.506-4.783
			c2.424-0.779,4.851-1.562,7.281-2.345c2.428-0.774,4.843-1.585,7.303-2.297c9.761-2.899,19.513-5.935,29.434-8.564
			c2.459-0.677,4.92-1.354,7.381-2.032c2.455-0.684,4.913-1.359,7.393-1.957c4.933-1.235,9.87-2.472,14.809-3.709l3.694-0.924
			l3.709-0.836c2.469-0.554,4.939-1.107,7.409-1.662c2.464-0.553,4.928-1.105,7.392-1.658c1.231-0.272,2.459-0.563,3.692-0.817
			l3.698-0.729c4.917-0.97,9.833-1.938,14.746-2.907c2.447-0.511,4.899-0.906,7.35-1.319c2.445-0.412,4.89-0.825,7.333-1.236
			c2.437-0.412,4.874-0.822,7.309-1.232l3.603-0.598l3.616-0.582c4.807-0.772,9.609-1.545,14.404-2.316
			c4.786-0.736,9.512-1.62,14.252-2.444c4.716-0.852,9.425-1.618,14.124-2.536c4.679-0.908,9.35-1.815,14.011-2.721
			c2.325-0.432,4.638-0.936,6.95-1.436c2.307-0.494,4.612-0.989,6.914-1.483c18.218-3.983,36.231-8.497,53.591-14.177l6.431-2.126
			l6.311-2.318l3.144-1.153c1.047-0.383,2.058-0.83,3.088-1.242l6.136-2.51c8.01-3.521,15.834-7.267,23.191-11.5
			c7.309-4.199,14.259-8.725,20.948-13.432c6.65-4.682,13.062-9.54,19.532-14.302c12.746-9.511,25.931-18.527,39.634-26.474
			c13.531-7.854,27.479-14.64,41.339-20.668c13.705-5.899,27.371-10.978,40.674-15.662c6.583-2.301,13.067-4.566,19.447-6.797
			c3.174-1.11,6.322-2.213,9.444-3.306c3.101-1.116,6.176-2.222,9.225-3.319c6.063-2.197,12.048-4.295,17.881-6.469
			c5.796-2.166,11.487-4.293,17.069-6.379c21.93-8.391,42.026-16.704,59.577-25.466c1.085-0.543,2.189-1.037,3.239-1.61
			c1.056-0.562,2.105-1.119,3.147-1.674c2.08-1.105,4.134-2.198,6.159-3.275c1.021-0.523,1.997-1.103,2.972-1.668
			s1.943-1.127,2.904-1.684c1.919-1.114,3.81-2.211,5.675-3.293c3.627-2.288,7.179-4.468,10.566-6.654
			c3.332-2.236,6.579-4.375,9.677-6.488c3.061-2.142,6.014-4.209,8.857-6.198c2.807-2.019,5.505-3.957,8.091-5.815
			c5.132-3.726,9.822-7.131,14.038-10.193c4.198-3.047,7.933-5.758,11.168-8.106c3.238-2.326,5.983-4.298,8.203-5.893
			c4.429-3.174,6.781-4.861,6.781-4.861s-2.341,1.702-6.746,4.904c-2.209,1.609-4.939,3.598-8.161,5.944
			c-3.219,2.369-6.933,5.103-11.108,8.177c-4.194,3.086-8.859,6.521-13.963,10.279c-2.573,1.874-5.258,3.831-8.051,5.866
			c-2.83,2.008-5.77,4.096-8.818,6.258c-3.085,2.136-6.321,4.296-9.642,6.558c-3.376,2.209-6.92,4.418-10.539,6.733
			c-1.861,1.097-3.75,2.208-5.666,3.336c-0.959,0.565-1.926,1.134-2.899,1.707c-0.974,0.573-1.949,1.16-2.969,1.691
			c-2.023,1.093-4.075,2.2-6.153,3.325c-1.042,0.562-2.09,1.127-3.144,1.697c-1.05,0.582-2.153,1.084-3.238,1.635
			c-17.539,8.9-37.622,17.359-59.522,25.903c-5.573,2.124-11.256,4.29-17.043,6.496c-5.824,2.214-11.799,4.353-17.854,6.593
			c-3.045,1.117-6.116,2.244-9.212,3.381c-3.114,1.112-6.254,2.235-9.419,3.366c-6.363,2.271-12.829,4.578-19.393,6.921
			c-13.232,4.756-26.759,9.885-40.314,15.822c-13.697,6.065-27.437,12.864-40.724,20.693c-13.46,7.928-26.349,16.865-38.948,26.4
			c-6.398,4.776-12.768,9.674-19.455,14.449c-6.724,4.801-13.774,9.462-21.226,13.807c-7.504,4.385-15.505,8.282-23.687,11.94
			l-6.261,2.609c-1.051,0.428-2.087,0.892-3.153,1.29l-3.201,1.199l-6.43,2.407l-6.537,2.21
			c-17.646,5.9-35.859,10.586-54.237,14.732c-2.322,0.515-4.647,1.029-6.974,1.546c-2.332,0.521-4.666,1.044-7.006,1.495
			c-4.695,0.945-9.399,1.891-14.113,2.839c-4.733,0.956-9.49,1.764-14.247,2.656c-4.777,0.864-9.58,1.793-14.342,2.558
			c-4.794,0.805-9.594,1.61-14.399,2.416l-3.614,0.607l-3.64,0.628c-2.402,0.422-4.805,0.844-7.209,1.266
			c-2.409,0.423-4.818,0.847-7.229,1.269c-2.416,0.424-4.833,0.83-7.245,1.351c-4.842,0.987-9.686,1.978-14.531,2.966l-3.643,0.743
			c-1.214,0.26-2.425,0.555-3.637,0.831c-2.427,0.563-4.855,1.123-7.282,1.686c-2.432,0.563-4.864,1.125-7.295,1.688l-3.652,0.847
			l-3.638,0.937c-4.863,1.252-9.722,2.503-14.577,3.753c-2.441,0.604-4.861,1.286-7.276,1.977c-2.423,0.685-4.845,1.368-7.264,2.052
			c-9.76,2.654-19.356,5.711-28.954,8.631c-2.418,0.716-4.794,1.531-7.181,2.311c-2.39,0.787-4.777,1.572-7.161,2.357
			c-4.778,1.58-9.566,3.11-14.26,4.806c-4.73,1.661-9.446,3.317-14.146,4.969c-4.711,1.671-9.339,3.455-13.985,5.167
			c-9.371,3.405-18.469,7.102-27.554,10.642c-18.212,7.381-35.915,14.818-52.768,22.475c-17.166,7.655-33.453,15.476-49.017,23.088
			c-7.769,3.913-15.476,7.666-22.807,11.505c-3.701,1.909-7.359,3.795-10.973,5.659c-3.58,1.9-7.116,3.777-10.604,5.629
			c-28.217,14.996-52.36,28.948-72.129,40.819c-20.05,12.038-35.43,21.891-45.798,28.724c-5.222,3.433-9.157,6.097-11.783,7.892
			c-2.594,1.791-3.934,2.718-3.934,2.718L-316.761,988.688z"/>
		<path clip-path="url(#SVGID_64_)" fill="#72BF45" d="M-74.309,812.415c0,0,0.677-0.338,1.987-0.992
			c1.287-0.63,3.194-1.563,5.678-2.78c4.953-2.398,12.195-5.856,21.462-10.106c18.346-8.39,44.383-19.906,76.155-31.89
			c15.595-5.853,32.514-11.8,50.577-17.233c17.782-5.328,36.666-10.236,56.286-13.408c4.848-0.772,9.733-1.449,14.639-1.949
			c2.445-0.239,4.892-0.466,7.34-0.624c2.358-0.156,4.718-0.314,7.08-0.472c9.223-0.644,18.589-1.495,27.886-2.636
			c9.225-1.155,18.444-2.584,27.492-4.543c8.963-1.942,17.79-4.366,26.079-7.577c8.257-3.148,15.892-7.121,22.896-11.654
			c6.991-4.49,13.424-9.519,20.307-14.297c6.811-4.763,14.196-9.183,22.04-12.685c3.896-1.742,7.871-3.279,11.86-4.627
			c1.989-0.673,3.985-1.289,5.975-1.877c1.965-0.545,3.92-1.086,5.863-1.627c7.853-2.09,15.526-3.769,23.065-5.017
			c7.473-1.222,14.757-1.963,21.708-2.294c6.906-0.341,13.471-0.273,19.737-0.385c6.22-0.108,12.229-0.54,17.895-1.842
			c2.814-0.64,5.54-1.439,8.128-2.403c2.601-0.962,4.994-2.048,7.438-3.149c2.407-1.072,4.717-2.15,7.05-3.086
			c1.153-0.479,2.289-0.951,3.406-1.415c1.118-0.458,2.237-0.866,3.326-1.29c8.69-3.339,16.42-5.705,22.791-7.339
			c6.338-1.61,11.347-2.511,14.74-3.01c3.384-0.496,5.178-0.597,5.178-0.597s-1.798,0.134-5.175,0.69
			c-3.386,0.56-8.375,1.548-14.664,3.265c-6.323,1.739-13.972,4.229-22.537,7.693c-1.072,0.439-2.176,0.864-3.274,1.336
			c-1.096,0.479-2.209,0.964-3.34,1.457c-2.275,0.958-4.572,2.08-6.952,3.191c-2.342,1.1-4.856,2.316-7.488,3.347
			c-2.647,1.05-5.461,1.94-8.381,2.669c-5.883,1.482-12.158,2.063-18.481,2.311c-6.378,0.254-12.91,0.334-19.703,0.819
			c-6.834,0.476-13.924,1.353-21.188,2.698c-7.302,1.365-14.827,3.181-22.341,5.35c-3.863,1.153-7.662,2.25-11.405,3.603
			c-3.764,1.34-7.481,2.85-11.104,4.544c-7.294,3.408-14.075,7.619-20.539,12.313c-6.524,4.699-12.866,9.86-20.104,14.7
			c-7.243,4.88-15.455,9.343-24.272,12.866c-8.866,3.604-18.22,6.327-27.607,8.523c-9.484,2.217-19.045,3.856-28.568,5.213
			c-9.619,1.343-19.16,2.375-28.715,3.205c-2.356,0.199-4.709,0.396-7.06,0.596c-2.27,0.188-4.552,0.443-6.831,0.707
			c-4.576,0.55-9.162,1.269-13.727,2.081c-18.472,3.323-36.523,8.341-53.567,13.782c-17.309,5.543-33.596,11.595-48.613,17.541
			C5.536,786.279-19.572,797.939-37.18,806.39c-8.892,4.28-15.816,7.748-20.516,10.134c-2.338,1.199-4.133,2.121-5.344,2.742
			c-1.173,0.614-1.779,0.93-1.779,0.93L-74.309,812.415z"/>
		<path clip-path="url(#SVGID_64_)" fill="#FBB317" d="M-455.886,856.534c0,0,1.568-0.729,4.601-2.14
			c2.987-1.364,7.409-3.383,13.158-6.007c11.441-5.171,28.117-12.591,49.354-21.671c20.934-8.953,46.183-19.457,75.078-30.86
			c28.334-11.163,60.025-23.136,94.544-35.06c33.668-11.607,69.875-23.162,108.215-33.265c9.403-2.483,18.941-4.853,28.591-7.088
			c9.575-2.222,19.254-4.327,29.047-6.216c19.337-3.743,39.07-6.842,58.952-8.531c2.458-0.241,4.922-0.382,7.383-0.563
			c2.455-0.193,4.911-0.301,7.365-0.424c2.492-0.134,4.822-0.219,7.156-0.303c2.336-0.087,4.673-0.174,7.009-0.261
			c9.282-0.362,18.555-0.724,27.81-1.083c18.278-0.744,36.463-1.589,54.5-2.706c17.748-1.108,35.358-2.487,52.765-4.347
			c8.601-0.916,17.154-1.924,25.645-3.084c4.222-0.545,8.427-1.186,12.619-1.781c4.172-0.656,8.334-1.264,12.474-1.971
			c32.578-5.34,64.081-12.5,93.956-20.401c29.069-7.688,56.695-15.927,82.292-24.83c12.581-4.346,24.693-8.849,36.387-13.324
			c11.565-4.419,22.736-8.823,33.677-12.784c10.822-3.914,21.466-7.315,31.833-9.838c10.256-2.474,20.203-4.138,29.58-5.086
			c4.711-0.467,9.232-0.699,13.629-0.806c4.369-0.083,8.579,0.019,12.634,0.214c8.048,0.42,15.447,1.305,22.296,2.175
			c6.793,0.872,13.081,1.69,18.94,2.171c5.817,0.467,11.215,0.586,16.111,0.358c4.868-0.222,9.234-0.787,12.998-1.47
			c1.88-0.307,3.605-0.729,5.187-1.063c1.572-0.386,2.997-0.756,4.269-1.094c1.263-0.374,2.377-0.705,3.338-0.989
			c0.958-0.294,1.753-0.581,2.398-0.791c1.286-0.431,1.949-0.653,1.949-0.653s-0.66,0.234-1.938,0.689
			c-0.642,0.223-1.433,0.523-2.387,0.836c-0.958,0.303-2.069,0.655-3.328,1.053c-1.27,0.363-2.693,0.762-4.265,1.178
			c-1.584,0.365-3.311,0.822-5.198,1.166c-3.777,0.76-8.172,1.414-13.09,1.733c-4.946,0.328-10.416,0.317-16.309-0.036
			c-5.932-0.363-12.298-1.058-19.131-1.789c-6.89-0.732-14.291-1.459-22.275-1.713c-4.021-0.113-8.183-0.13-12.487,0.037
			c-4.321,0.189-8.8,0.51-13.346,1.049c-9.271,1.116-18.977,2.935-28.975,5.543c-10.099,2.66-20.446,6.18-31.051,10.239
			c-10.718,4.109-21.744,8.697-33.229,13.334c-11.61,4.695-23.696,9.448-36.273,14.058c-25.603,9.434-53.266,18.289-82.429,26.533
			c-29.977,8.48-61.801,16.301-94.969,22.331c-4.213,0.794-8.454,1.49-12.707,2.234c-4.274,0.685-8.563,1.414-12.871,2.048
			c-8.666,1.337-17.4,2.521-26.18,3.616c-17.777,2.216-35.74,3.942-53.774,5.396c-18.329,1.465-36.736,2.651-55.161,3.736
			c-9.316,0.532-18.651,1.064-27.996,1.598c-2.343,0.131-4.686,0.26-7.03,0.391c-2.356,0.128-4.717,0.258-6.928,0.41
			c-2.255,0.147-4.504,0.276-6.776,0.492c-2.272,0.201-4.535,0.36-6.818,0.621c-18.381,1.833-36.921,5.008-55.203,8.823
			c-9.25,1.922-18.438,4.062-27.545,6.313c-9.175,2.265-18.266,4.662-27.251,7.175c-36.6,10.212-71.415,21.875-103.813,33.582
			c-33.193,12.015-63.724,24.069-91.004,35.291c-27.803,11.457-52.091,21.995-72.186,30.953
			c-20.376,9.081-36.333,16.477-47.205,21.593c-5.426,2.579-9.599,4.563-12.419,5.902c-2.742,1.327-4.159,2.014-4.159,2.014
			L-455.886,856.534z"/>
		<path clip-path="url(#SVGID_64_)" fill="#FBB317" d="M-507.292,1023.339c0,0,1.649-0.543,4.837-1.594
			c3.22-1.085,8.007-2.707,14.207-4.903c12.315-4.356,30.148-10.888,52.089-19.633c21.614-8.611,47.116-19.317,74.968-32.119
			c27.333-12.547,56.843-27.082,86.95-43.521c29.492-16.094,59.488-34.036,88.464-53.608c3.635-2.394,7.09-4.887,10.667-7.342
			c1.773-1.23,3.549-2.464,5.328-3.7c1.737-1.252,3.476-2.506,5.219-3.763c3.493-2.527,6.998-5.063,10.516-7.608
			c1.758-1.271,3.519-2.544,5.283-3.818c1.845-1.279,3.693-2.561,5.543-3.842c14.751-10.115,30.766-19.705,47.641-28.756
			c33.165-17.764,69.42-33.119,106.215-46.365c35.773-12.875,72.017-23.764,107.454-33.252c34.405-9.202,68.072-17.09,100.279-24.26
			c31.292-6.978,61.285-13.235,89.375-19.697c13.771-3.194,27.082-6.352,39.69-10.267c12.473-3.819,24.325-8.131,35.539-12.661
			c22.088-8.94,41.77-18.682,59.863-27.166c17.762-8.381,34.154-15.521,49.002-20.543c14.606-5,27.603-8.029,38.187-9.723
			c10.477-1.697,18.634-2.227,24.115-2.475c2.729-0.104,4.812-0.161,6.207-0.168c1.395-0.018,2.115-0.025,2.115-0.025l-0.205,1.148
			c0,0-0.714,0.015-2.099,0.041c-1.386,0.015-3.454,0.086-6.161,0.207c-5.437,0.282-13.52,0.86-23.881,2.606
			c-10.466,1.742-23.294,4.817-37.718,9.854c-14.663,5.063-30.864,12.237-48.509,20.697c-17.971,8.564-37.61,18.443-59.803,27.59
			c-11.268,4.635-23.212,9.065-35.813,13.01c-12.746,4.046-26.202,7.322-39.975,10.603c-28.14,6.65-58.08,13.084-89.263,20.235
			c-32.087,7.345-65.56,15.398-99.674,24.742c-35.127,9.63-70.95,20.63-106.136,33.533c-36.178,13.27-71.622,28.553-103.787,46.045
			c-16.345,8.9-31.841,18.323-45.958,28.146c-1.755,1.233-3.508,2.465-5.258,3.695c-1.743,1.277-3.482,2.554-5.219,3.828
			c-3.478,2.557-6.945,5.104-10.398,7.644c-1.744,1.278-3.485,2.554-5.222,3.827c-1.781,1.257-3.559,2.511-5.333,3.763
			c-3.58,2.498-7.04,5.033-10.678,7.472c-29.014,19.916-59.092,38.203-88.696,54.627c-30.225,16.78-59.885,31.643-87.392,44.495
			c-28.035,13.113-53.745,24.108-75.589,32.978c-22.177,9.008-40.269,15.769-52.862,20.316c-6.334,2.289-11.279,4.002-14.64,5.158
			c-3.435,1.156-5.21,1.753-5.21,1.753L-507.292,1023.339z"/>
		<path clip-path="url(#SVGID_64_)" fill="#F36F24" d="M-212.006,875.88c0,0,0.135-0.165,0.4-0.489
			c0.283-0.338,0.706-0.842,1.264-1.507c1.086-1.286,2.701-3.12,4.845-5.469c4.279-4.697,10.725-11.336,19.331-19.316
			c8.595-7.986,19.409-17.247,32.402-27.077c6.466-4.955,13.556-9.939,21.092-15.092c7.613-5.035,15.675-10.248,24.332-15.275
			c17.261-10.127,36.559-20.104,57.72-28.895c21.132-8.837,44.033-16.67,68.208-22.873c3.035-0.72,6.082-1.443,9.142-2.17
			c1.529-0.361,3.062-0.726,4.597-1.09l2.306-0.541l2.326-0.471c3.103-0.629,6.218-1.258,9.343-1.891
			c1.563-0.314,3.128-0.631,4.695-0.947c1.577-0.265,3.157-0.528,4.739-0.793c3.163-0.529,6.336-1.06,9.518-1.592l2.387-0.398
			l2.411-0.354c1.587-0.226,3.176-0.453,4.767-0.68c3.188-0.445,6.361-0.93,9.583-1.345c3.223-0.415,6.452-0.832,9.688-1.249
			c12.937-1.6,25.975-3.041,39.1-4.188c13.119-1.188,26.305-2.153,39.499-2.894c26.387-1.547,52.795-2.207,78.757-2.604
			c25.962-0.409,51.488-0.501,76.121-1.505c24.611-1.029,48.408-2.992,70.404-7.836c2.732-0.661,5.467-1.245,8.145-1.958
			c2.663-0.753,5.352-1.403,7.942-2.225c2.63-0.811,5.239-1.613,7.828-2.409c1.294-0.399,2.584-0.795,3.868-1.191
			c1.268-0.425,2.532-0.848,3.79-1.27c5.034-1.684,9.991-3.322,14.807-5.106c2.414-0.872,4.805-1.737,7.172-2.592
			c2.353-0.897,4.683-1.786,6.989-2.665c18.439-7.059,35.086-14.222,49.927-20.38c14.832-6.179,27.897-11.29,38.866-14.896
			c10.95-3.688,19.838-5.603,25.883-6.861c3.046-0.523,5.395-0.84,6.971-1.092c1.577-0.241,2.392-0.365,2.392-0.365
			s-0.813,0.138-2.386,0.404c-1.572,0.279-3.914,0.635-6.946,1.207c-6.021,1.358-14.856,3.416-25.722,7.275
			c-10.885,3.781-23.835,9.096-38.552,15.516c-14.727,6.399-31.263,13.843-49.633,21.228c-2.298,0.92-4.62,1.851-6.964,2.789
			c-2.362,0.897-4.747,1.805-7.154,2.72c-4.799,1.869-9.763,3.602-14.807,5.383c-1.261,0.445-2.527,0.894-3.798,1.342
			c-1.278,0.418-2.56,0.836-3.848,1.256c-2.575,0.839-5.171,1.685-7.787,2.537c-2.641,0.888-5.335,1.586-8.032,2.396
			c-2.706,0.768-5.465,1.406-8.226,2.122c-22.213,5.278-46.197,7.649-70.909,9.095c-24.736,1.42-50.29,1.935-76.207,2.774
			c-25.917,0.827-52.213,1.923-78.431,3.896c-13.111,0.954-26.201,2.131-39.211,3.528c-13.013,1.354-25.95,3.003-38.736,4.8
			c-3.191,0.465-6.376,0.93-9.553,1.393c-3.177,0.463-6.369,1.005-9.54,1.501c-1.587,0.254-3.173,0.507-4.756,0.759l-2.339,0.382
			l-2.34,0.433c-3.117,0.574-6.225,1.147-9.324,1.719c-1.549,0.285-3.096,0.57-4.64,0.854c-1.534,0.337-3.066,0.673-4.595,1.009
			c-3.057,0.672-6.103,1.34-9.139,2.006l-2.275,0.5l-2.254,0.569c-1.5,0.382-2.997,0.765-4.492,1.146
			c-2.988,0.761-5.965,1.519-8.929,2.275c-23.602,6.476-45.89,14.519-66.406,23.5c-20.544,8.936-39.222,18.992-55.889,29.146
			c-8.36,5.041-16.131,10.252-23.463,15.276c-7.254,5.141-14.072,10.102-20.276,15.023c-12.469,9.764-22.805,18.917-30.975,26.768
			c-8.179,7.841-14.261,14.319-18.227,18.822c-1.984,2.248-3.471,3.994-4.425,5.163c-0.928,1.151-1.407,1.745-1.407,1.745
			L-212.006,875.88z"/>
		<path clip-path="url(#SVGID_64_)" fill="#E4E41F" d="M-219.106,911.912c0,0,0.59-0.291,1.734-0.854
			c1.154-0.553,2.867-1.374,5.101-2.445c4.454-2.085,10.999-5.074,19.423-8.648c8.435-3.55,18.764-7.666,30.831-11.861
			c12.076-4.164,25.884-8.479,41.458-11.691c1.95-0.388,3.92-0.779,5.91-1.177c1.998-0.368,4.056-0.613,6.111-0.928
			c1.03-0.149,2.064-0.299,3.104-0.45c1.04-0.145,2.075-0.327,3.149-0.385c2.132-0.169,4.283-0.341,6.452-0.514l1.629-0.128
			l0.817-0.063l0.724-0.046c1.051-0.059,2.107-0.117,3.167-0.175c2.119-0.119,4.254-0.239,6.406-0.36
			c4.23-0.359,8.496-0.625,12.878-1.07c17.521-1.669,35.992-4.147,54.989-7.338c18.996-3.204,38.536-7.123,58.151-11.998
			c19.597-4.901,39.33-10.699,58.275-18.307c2.374-0.935,4.666-2.031,7.004-3.038l3.491-1.541c0.558-0.253,1.219-0.523,1.691-0.762
			l1.733-0.861l6.928-3.446c2.295-1.157,4.484-2.399,6.73-3.593l3.348-1.807c1.113-0.609,2.208-1.269,3.313-1.899
			c2.204-1.276,4.406-2.553,6.604-3.826c4.323-2.683,8.69-5.261,12.915-8.048c17.036-10.924,33.215-22.688,49.009-33.919
			c15.783-11.255,31.227-21.959,46.369-31.349c3.793-2.34,7.573-4.566,11.292-6.799c3.739-2.153,7.399-4.297,11.062-6.34
			c7.283-4.137,14.418-7.955,21.355-11.459c13.895-6.957,27.058-12.547,39.116-16.328c12.038-3.836,22.843-6.113,31.807-7.383
			c8.978-1.199,16.083-1.633,20.925-1.75c4.843-0.066,7.427-0.101,7.427-0.101s-2.581,0.09-7.421,0.258
			c-4.834,0.219-11.92,0.803-20.84,2.187c-8.906,1.455-19.61,3.95-31.491,8.015c-11.902,4.012-24.855,9.838-38.52,17.047
			c-6.821,3.629-13.844,7.58-21.002,11.849c-3.591,2.104-7.217,4.331-10.907,6.562c-3.631,2.286-7.35,4.584-11.065,6.985
			c-14.847,9.649-29.978,20.615-45.499,32.187c-15.538,11.552-31.507,23.692-48.489,35.098c-4.207,2.903-8.579,5.613-12.901,8.423
			c-2.204,1.34-4.412,2.683-6.623,4.026c-1.111,0.667-2.203,1.354-3.33,2.005l-3.403,1.93c-2.271,1.271-4.54,2.615-6.822,3.828
			l-6.854,3.592l-1.715,0.897c-0.674,0.354-1.208,0.576-1.82,0.871l-3.56,1.664c-2.382,1.088-4.734,2.269-7.145,3.279
			c-19.255,8.21-39.149,14.504-58.894,19.892c-19.761,5.357-39.42,9.734-58.556,13.38c-19.142,3.632-37.761,6.536-55.559,8.612
			c-4.441,0.547-8.913,0.925-13.271,1.383c-2.152,0.167-4.288,0.332-6.406,0.496c-1.059,0.081-2.113,0.162-3.163,0.242l-0.851,0.07
			l-0.751,0.076l-1.498,0.153c-1.991,0.2-3.966,0.399-5.923,0.596c-0.978,0.068-1.954,0.266-2.925,0.422
			c-0.971,0.163-1.937,0.324-2.899,0.485c-1.922,0.338-3.829,0.6-5.711,0.989c-1.879,0.417-3.74,0.829-5.582,1.237
			c-14.728,3.361-28.021,7.813-39.652,12.104c-11.633,4.322-21.627,8.551-29.782,12.188c-8.146,3.662-14.464,6.711-18.74,8.822
			c-2.111,1.068-3.73,1.887-4.821,2.438c-1.09,0.564-1.652,0.856-1.652,0.856L-219.106,911.912z"/>
		<path clip-path="url(#SVGID_64_)" fill="#FFFFFF" d="M-181.012,809.742c0,0,1.267-0.066,3.718-0.195
			c1.224-0.064,2.742-0.145,4.544-0.238c1.79-0.098,3.707-0.244,5.959-0.391c8.938-0.617,22.282-1.711,39.049-3.9
			c16.564-2.163,36.489-5.419,58.89-10.206c22.002-4.687,46.282-10.847,71.976-18.403c25.178-7.384,51.635-16.072,78.916-25.482
			c26.702-9.163,54.119-19.061,82.451-28.28c13.915-4.507,28.054-8.836,42.484-12.546c7.145-1.83,14.356-3.514,21.633-4.924
			c3.623-0.688,7.251-1.344,10.897-1.885c3.607-0.57,7.333-0.998,10.785-1.414c27.77-3.308,55.135-5.987,81.77-8.672
			c25.951-2.61,51.228-5.17,75.504-8.097c23.684-2.866,46.469-6.035,67.935-10.144c10.549-2.043,20.787-4.33,30.593-7.031
			c1.212-0.359,2.42-0.716,3.622-1.072c1.213-0.357,2.423-0.711,3.589-1.107c2.347-0.771,4.679-1.514,6.984-2.356
			c1.152-0.408,2.299-0.813,3.441-1.219c1.133-0.429,2.261-0.856,3.384-1.281c2.249-0.832,4.457-1.718,6.645-2.597
			c17.324-6.996,32.991-14.572,47.073-21.68c13.867-7.054,26.231-13.748,36.986-19.725c10.638-5.915,19.739-11.146,27.155-15.439
			c7.356-4.27,13.096-7.601,16.991-9.86c3.881-2.25,6.002-3.353,6.002-3.353s-2.105,1.129-5.953,3.428
			c-3.861,2.308-9.553,5.711-16.845,10.07c-7.353,4.387-16.379,9.73-26.935,15.78c-10.672,6.114-22.946,12.967-36.735,20.207
			c-14.006,7.298-29.596,15.089-46.96,22.364c-2.193,0.915-4.408,1.836-6.67,2.705c-1.129,0.445-2.263,0.891-3.403,1.339
			c-1.151,0.425-2.307,0.851-3.468,1.28c-2.312,0.879-4.703,1.677-7.104,2.498c-1.206,0.426-2.406,0.793-3.612,1.166
			c-1.219,0.377-2.442,0.756-3.671,1.138c-9.917,2.894-20.244,5.366-30.873,7.596c-21.624,4.483-44.529,8.033-68.312,11.291
			c-24.377,3.328-49.729,6.302-75.707,9.331c-26.657,3.114-53.998,6.23-81.563,9.955c-3.566,0.48-6.873,0.931-10.297,1.538
			c-3.412,0.571-6.832,1.261-10.251,1.977c-6.871,1.468-13.736,3.208-20.573,5.099c-13.803,3.83-27.479,8.299-41.017,12.972
			c-27.556,9.551-54.566,19.887-81.082,29.56c-27.094,9.928-53.644,19.219-79.173,27.236c-26.058,8.205-50.995,15.048-73.846,20.372
			c-23.277,5.44-44.269,9.294-61.856,11.937c-17.877,2.687-32.022,4.135-41.914,5.017c-2.476,0.21-4.753,0.422-6.572,0.558
			c-1.811,0.133-3.337,0.242-4.567,0.332c-2.463,0.18-3.737,0.272-3.737,0.272L-181.012,809.742z"/>
		<path clip-path="url(#SVGID_64_)" fill="#72BF45" d="M-479.001,1051.974c0,0,0.263-0.308,0.78-0.915
			c0.496-0.564,1.235-1.407,2.21-2.519c1.947-2.188,4.847-5.387,8.77-9.507c7.821-8.213,19.616-20.084,36.084-34.8
			c16.32-14.559,37.099-31.852,63.375-50.63c25.827-18.43,56.889-38.227,94.116-56.979c18.271-9.157,37.909-18.035,58.912-26.037
			c20.662-7.882,42.54-14.932,65.134-20.628c2.803-0.68,5.609-1.36,8.419-2.042c2.809-0.654,5.631-1.267,8.45-1.902
			c2.812-0.637,5.645-1.174,8.471-1.765l2.118-0.433c0.865-0.181,1.409-0.273,2.13-0.413l4.074-0.775
			c10.753-2.07,21.794-4.097,32.782-6.064c21.642-3.858,43.362-7.435,65.03-10.735c42.191-6.442,84.123-11.777,125.043-16.599
			c39.48-4.68,78.051-8.84,115.248-14.006c18.122-2.523,35.931-5.338,53.317-8.709l6.438-1.289c2.058-0.405,4.286-0.9,6.412-1.345
			l6.408-1.366l6.298-1.401c8.339-1.857,16.615-3.836,24.763-5.854c31.981-7.982,62.307-17.188,90.391-27.198
			c27.351-9.709,52.677-20.179,75.795-30.553c11.37-5.091,22.228-10.171,32.591-15.103c1.287-0.614,2.567-1.226,3.841-1.832
			c1.248-0.621,2.49-1.239,3.724-1.853c0.619-0.313,1.254-0.615,1.856-0.933l1.784-0.953c1.185-0.637,2.368-1.253,3.535-1.897
			c2.313-1.332,4.638-2.592,6.853-3.957c1.114-0.67,2.222-1.336,3.322-1.998c1.083-0.685,2.159-1.364,3.229-2.04
			c8.51-5.395,16.265-10.954,23.401-16.376c7.088-5.391,13.569-10.668,19.509-15.695c11.774-9.982,21.476-18.988,29.334-26.389
			c7.791-7.359,13.79-13.176,17.977-17.055c2.095-1.931,3.723-3.394,4.874-4.35c0.556-0.486,1.028-0.831,1.322-1.072
			c0.301-0.238,0.453-0.359,0.453-0.359l0.807,0.828c0,0-0.144,0.117-0.427,0.349c-0.28,0.237-0.714,0.561-1.254,1.047
			c-1.101,0.94-2.687,2.407-4.732,4.347c-4.095,3.905-9.987,9.785-17.658,17.243c-7.736,7.501-17.3,16.642-28.956,26.812
			c-5.881,5.123-12.309,10.511-19.363,16.033c-7.103,5.556-14.842,11.271-23.397,16.86c-1.076,0.7-2.159,1.405-3.248,2.114
			c-1.11,0.689-2.226,1.382-3.35,2.078c-2.232,1.42-4.588,2.74-6.929,4.129c-1.191,0.68-2.418,1.34-3.637,2.017l-1.841,1.015
			c-0.616,0.334-1.23,0.638-1.848,0.959c-1.25,0.644-2.507,1.289-3.771,1.94c-1.266,0.625-2.538,1.254-3.818,1.886
			c-10.3,5.08-21.11,10.323-32.453,15.592c-23.058,10.735-48.408,21.636-75.882,31.821c-28.209,10.501-58.769,20.253-91.066,28.806
			c-8.24,2.166-16.57,4.283-25.049,6.301l-6.413,1.523l-6.409,1.465c-2.167,0.484-4.241,0.978-6.502,1.461l-6.579,1.418
			c-17.754,3.714-35.854,6.848-54.192,9.683c-37.649,5.806-76.365,10.575-115.779,15.854
			c-40.838,5.441-82.438,11.377-124.104,18.378c-21.389,3.586-42.776,7.435-64.042,11.551c-10.747,2.091-21.391,4.205-32.226,6.456
			l-4.06,0.835c-0.635,0.133-1.448,0.291-1.935,0.403l-1.943,0.425c-2.591,0.577-5.188,1.101-7.763,1.721
			c-2.582,0.616-5.16,1.231-7.735,1.845c-2.568,0.658-5.134,1.315-7.696,1.971c-20.629,5.482-40.554,12.182-59.404,19.649
			c-19.132,7.569-37.062,15.957-53.781,24.617c-34.014,17.706-62.592,36.47-86.365,53.978c-24.159,17.815-43.3,34.262-58.275,48.067
			c-15.102,13.946-25.86,25.16-32.89,32.808c-3.527,3.838-6.094,6.776-7.773,8.732c-1.586,1.889-2.405,2.865-2.405,2.865
			L-479.001,1051.974z"/>
		<path clip-path="url(#SVGID_64_)" fill="#E4E41F" d="M-425.359,992.623c0,0,0.251-0.294,0.744-0.874
			c0.476-0.544,1.185-1.354,2.121-2.423c1.872-2.107,4.663-5.19,8.44-9.161c7.531-7.914,18.898-19.354,34.761-33.5
			c15.724-13.997,35.745-30.602,61.049-48.562c24.883-17.628,54.786-36.512,90.628-54.25c17.587-8.668,36.494-17.039,56.721-24.521
			c19.899-7.375,40.962-13.943,62.744-19.13c5.391-1.262,10.807-2.485,16.262-3.586c2.71-0.586,5.442-1.069,8.168-1.59l4.135-0.772
			l3.947-0.687c5.266-0.906,10.482-1.845,15.813-2.73c5.303-0.879,10.613-1.759,15.929-2.641
			c20.966-3.402,42.015-6.524,63.022-9.377c40.92-5.571,81.617-10.053,121.363-14.039c38.368-3.877,75.878-7.252,112.089-11.611
			c8.861-1.073,17.645-2.23,26.344-3.462c8.624-1.256,17.167-2.583,25.608-4.066l6.278-1.145l3.044-0.565l1.571-0.32l0.784-0.162
			l0.713-0.164c3.807-0.856,7.783-1.979,11.595-3.249c7.637-2.55,15.024-5.779,22.118-9.33c14.066-7.07,27.005-15.361,39.407-23.679
			c12.279-8.246,24.034-16.635,36.033-24.446c5.958-3.868,11.976-7.599,18.238-10.974c3.119-1.676,6.288-3.271,9.556-4.707
			c1.632-0.711,3.275-1.398,4.953-2.021c0.843-0.328,1.652-0.594,2.553-0.914l2.412-0.794c6.529-2.135,12.962-3.903,19.285-5.542
			c6.282-1.621,12.453-3.085,18.5-4.47c23.796-5.441,45.797-9.706,65.25-15.215c4.791-1.367,9.421-2.823,13.817-4.459
			c2.197-0.801,4.312-1.685,6.365-2.6c2.041-0.939,4.162-1.912,6.152-2.867c7.956-3.822,15.349-7.713,22.01-11.637
			c13.246-7.725,23.815-15.512,31.997-22.236c8.111-6.693,13.993-12.332,18.149-16.049c2.064-1.861,3.698-3.253,4.835-4.16
			c0.559-0.462,1.007-0.791,1.301-1.018s0.444-0.34,0.444-0.34l0.699,0.746c0,0-0.143,0.113-0.425,0.337
			c-0.28,0.225-0.706,0.551-1.244,1.011c-1.091,0.905-2.669,2.3-4.679,4.182c-4.048,3.758-9.822,9.506-17.854,16.389
			c-8.101,6.912-18.622,14.967-31.87,23.014c-6.673,4.093-14.039,8.143-22.072,12.178c-2.03,1.017-4.026,1.98-6.16,3.002
			c-2.163,0.989-4.376,1.937-6.645,2.789c-4.547,1.741-9.275,3.274-14.14,4.715c-19.732,5.789-41.756,10.274-65.378,15.922
			c-5.996,1.434-12.096,2.943-18.269,4.601c-6.205,1.672-12.509,3.474-18.753,5.582l-2.402,0.815
			c-0.692,0.261-1.497,0.533-2.236,0.834c-1.512,0.58-3.014,1.23-4.513,1.906c-3.002,1.361-5.967,2.898-8.907,4.526
			c-5.906,3.276-11.691,6.957-17.46,10.807c-11.627,7.777-23.193,16.253-35.423,24.693c-12.368,8.516-25.403,17.127-40.046,24.719
			c-7.395,3.814-15.223,7.364-23.546,10.257c-4.209,1.455-8.433,2.717-12.939,3.787l-0.848,0.205l-0.784,0.17l-1.568,0.342
			l-3.259,0.651l-6.4,1.255c-8.598,1.629-17.277,3.098-26.029,4.493c-8.821,1.37-17.716,2.665-26.67,3.873
			c-36.594,4.913-74.228,8.821-112.535,13.226c-39.673,4.532-80.082,9.545-120.546,15.614c-20.766,3.107-41.528,6.476-62.17,10.11
			c-5.196,0.933-10.386,1.865-15.569,2.795c-5.199,0.935-10.484,1.958-15.709,2.93l-3.935,0.739l-3.739,0.746
			c-2.525,0.514-5.052,0.989-7.559,1.563c-5.043,1.077-10.046,2.271-15.023,3.494c-20.09,5.03-39.476,11.322-57.819,18.363
			c-18.62,7.132-36.061,15.103-52.319,23.363c-33.087,16.874-60.863,34.897-83.985,51.758
			c-23.491,17.152-42.108,33.045-56.679,46.408c-14.694,13.499-25.172,24.381-32.024,31.815c-3.438,3.73-5.943,6.591-7.584,8.499
			c-1.557,1.853-2.362,2.809-2.362,2.809L-425.359,992.623z"/>
		<path clip-path="url(#SVGID_64_)" fill="#FBB317" d="M-493.897,1002.786l-5.355-2.186c0.975-0.591,96.263-58.165,231.771-118.778
			c73.951-33.079,144.491-60.176,209.953-81.004C19.85,776.2,90.671,760.209,153.733,752.506
			c259.443-31.695,349.105-64.342,383.677-86.108c12.59-7.927,38.04-23.205,66.726-40.428
			c62.78-37.69,142.59-85.605,160.424-100.156l1.633,1.78c-17.979,14.698-97.753,62.713-160.507,100.484
			c-28.609,17.22-53.989,32.495-66.513,40.4c-64.175,40.505-233.885,68.584-385.638,87.349
			c-62.489,7.725-132.663,23.678-209.331,48.18c-64.94,20.752-134.912,47.733-208.263,80.651
			C-398.503,944.992-492.931,1002.199-493.897,1002.786"/>
		<path clip-path="url(#SVGID_64_)" fill="#E4E41F" d="M-441.997,876.992c0,0,0.453-0.229,1.346-0.679
			c0.923-0.458,2.3-1.141,4.114-2.039c3.574-1.761,8.864-4.315,15.806-7.565c13.772-6.467,34.002-15.593,60.008-26.436
			c12.803-5.375,27.06-11.068,42.5-17.115c15.363-5.889,31.836-12.143,49.526-18.389c17.389-6.26,35.951-12.455,55.321-18.774
			c19.202-6.065,39.158-12.272,59.97-18.078c20.412-5.856,41.609-11.292,63.248-16.596c5.375-1.249,10.772-2.503,16.19-3.761
			c2.7-0.627,5.405-1.254,8.116-1.881c2.717-0.582,5.439-1.166,8.165-1.75c5.434-1.162,10.886-2.328,16.353-3.498
			c5.464-1.071,10.943-2.146,16.434-3.222c10.894-2.224,21.917-4.005,32.939-5.971c2.738-0.503,5.49-0.914,8.242-1.338
			c2.745-0.425,5.491-0.849,8.24-1.273c2.741-0.423,5.484-0.846,8.229-1.27l4.11-0.636l4.112-0.549
			c10.909-1.422,21.832-3.01,32.753-4.104c5.421-0.583,10.846-1.229,16.261-1.761c5.386-0.465,10.77-0.932,16.15-1.397
			c2.681-0.231,5.36-0.465,8.039-0.696c2.664-0.166,5.326-0.33,7.988-0.496c5.303-0.328,10.602-0.656,15.894-0.983
			c5.257-0.273,10.481-0.401,15.711-0.608c5.188-0.17,10.428-0.419,15.54-0.499c20.299-0.44,40.459-0.877,60.398-1.309
			c38.765-0.849,76.694-1.685,113.359-3.095c17.839-0.697,35.387-1.519,52.607-2.666c4.258-0.293,8.493-0.565,12.711-0.906
			l6.287-0.49l6.244-0.543c4.136-0.339,8.257-0.792,12.35-1.178c4.078-0.469,8.132-0.858,12.164-1.389
			c8.012-0.951,15.934-2.135,23.74-3.468c7.744-1.312,15.374-2.926,22.83-4.834c7.392-1.907,14.632-4.151,21.489-6.979l2.542-1.082
			c0.415-0.178,0.863-0.361,1.249-0.536l1.266-0.591c1.684-0.786,3.362-1.57,5.035-2.352c1.679-0.77,3.316-1.572,4.945-2.375
			c1.63-0.798,3.254-1.593,4.871-2.386c12.829-6.383,25.045-13.032,36.7-19.683c11.519-6.58,22.502-13.184,32.968-19.688
			c20.614-12.803,39.258-25.29,55.895-36.914c16.34-11.46,30.806-22.14,43.186-31.762c6.151-4.747,11.767-9.276,16.912-13.462
			c5.082-4.2,9.697-8.07,13.755-11.64c8.096-7.069,14.126-12.855,18.073-16.893c0.979-1.011,1.844-1.904,2.59-2.674
			c0.718-0.789,1.321-1.453,1.808-1.988c0.972-1.068,1.473-1.619,1.473-1.619s-0.495,0.554-1.458,1.629
			c-0.481,0.538-1.08,1.207-1.792,2.002c-0.738,0.776-1.595,1.675-2.565,2.693c-3.913,4.066-9.896,9.9-17.935,17.032
			c-4.029,3.601-8.612,7.507-13.662,11.747c-5.11,4.225-10.689,8.798-16.802,13.592c-12.301,9.718-26.68,20.509-42.931,32.095
			c-16.544,11.753-35.089,24.384-55.618,37.355c-10.422,6.589-21.365,13.284-32.854,19.966
			c-11.626,6.753-23.817,13.511-36.668,20.029c-1.627,0.812-3.26,1.627-4.899,2.445c-1.64,0.823-3.288,1.647-4.952,2.426
			c-1.665,0.793-3.335,1.588-5.011,2.387l-1.259,0.6c-0.462,0.214-0.878,0.387-1.32,0.581l-2.624,1.142
			c-7.071,2.979-14.475,5.332-22.003,7.338c-7.593,2.008-15.335,3.709-23.171,5.102c-7.899,1.415-15.905,2.677-23.985,3.703
			c-4.072,0.57-8.153,0.996-12.267,1.503c-4.121,0.424-8.277,0.914-12.439,1.29l-6.288,0.6l-6.327,0.547
			c-4.246,0.379-8.504,0.689-12.787,1.021c-17.32,1.3-34.95,2.274-52.864,3.128c-36.819,1.73-74.864,2.896-113.72,4.081
			c-19.98,0.604-40.18,1.217-60.52,1.833c-5.155,0.125-10.275,0.415-15.426,0.628c-5.172,0.249-10.338,0.419-15.534,0.733
			c-5.231,0.367-10.467,0.736-15.707,1.104c-2.629,0.187-5.26,0.371-7.891,0.558c-2.645,0.25-5.291,0.502-7.938,0.754
			c-5.312,0.505-10.627,1.01-15.942,1.515c-5.344,0.569-10.697,1.251-16.044,1.871c-10.77,1.168-21.539,2.827-32.289,4.315
			l-4.05,0.575l-4.05,0.659c-2.703,0.441-5.405,0.88-8.106,1.32c-2.706,0.439-5.411,0.881-8.114,1.32
			c-2.709,0.44-5.417,0.866-8.113,1.385c-10.85,2.027-21.694,3.869-32.409,6.147c-5.401,1.104-10.787,2.205-16.159,3.304
			c-5.374,1.194-10.732,2.388-16.072,3.576c-2.679,0.596-5.353,1.189-8.023,1.783c-2.662,0.641-5.319,1.279-7.972,1.917
			c-5.32,1.281-10.62,2.558-15.898,3.828c-21.241,5.392-42.031,10.897-62.04,16.817c-20.395,5.865-39.936,12.119-58.725,18.223
			c-18.947,6.354-37.092,12.572-54.075,18.846c-17.272,6.258-33.339,12.512-48.313,18.394
			c-15.039,6.036-28.916,11.711-41.355,17.057c-25.26,10.783-44.842,19.82-58.066,26.17c-6.664,3.192-11.716,5.686-15.069,7.373
			c-3.311,1.686-5.023,2.556-5.023,2.556L-441.997,876.992z"/>
		<path clip-path="url(#SVGID_64_)" fill="#F36F24" d="M-148.675,938.809c0,0,0.344-0.135,1.021-0.402
			c0.69-0.28,1.72-0.7,3.077-1.253c2.738-1.135,6.81-2.864,12.048-5.217c10.406-4.679,25.365-11.813,43.301-21.54
			c17.694-9.589,38.192-21.7,59.643-36.343c21.114-14.4,43.144-31.236,64.218-50.274c2.568-2.375,5.159-4.77,7.77-7.184
			c2.591-2.416,5.077-4.893,7.652-7.366c2.599-2.46,4.985-5.011,7.516-7.541l1.877-1.907l1.024-1.037l0.972-0.959
			c1.297-1.277,2.599-2.56,3.905-3.846c1.319-1.285,2.581-2.574,3.96-3.867c1.459-1.293,2.923-2.591,4.392-3.892
			c1.469-1.298,2.943-2.599,4.421-3.904c1.567-1.247,3.138-2.499,4.714-3.753c1.577-1.251,3.158-2.504,4.744-3.761
			c1.68-1.206,3.364-2.415,5.052-3.627c1.703-1.199,3.34-2.444,5.109-3.613c1.784-1.157,3.571-2.315,5.363-3.477
			c14.306-9.177,30.326-17.453,47.418-24.308c16.824-6.787,34.439-12.463,52.285-17.012c34.889-9.039,70.189-14.246,104.485-20.133
			c16.734-2.916,33.322-6.021,49.348-10.406c15.724-4.431,31.025-10.066,45.212-16.922c7.035-3.391,13.815-7.066,20.418-10.916
			c6.574-3.809,13.011-7.758,19.613-11.506c6.546-3.735,13.323-7.204,20.322-10.139c6.966-2.89,14.123-5.23,21.283-7.022
			c7.11-1.785,14.209-3.047,21.196-3.968l2.605-0.346l2.592-0.281c1.708-0.189,3.411-0.377,5.109-0.564
			c1.697-0.195,3.388-0.391,5.074-0.585l2.521-0.29l2.489-0.372c13.152-1.887,26.032-4.668,38.383-7.864
			c3.059-0.83,6.105-1.606,9.111-2.463c2.992-0.871,5.962-1.734,8.908-2.592c2.922-0.916,5.822-1.824,8.697-2.725
			c2.867-0.901,5.685-1.885,8.494-2.809c11.122-3.779,21.789-7.729,31.965-11.778c10.055-4.032,19.662-8.099,28.781-12.177
			c9.013-4.076,17.604-8.062,25.673-12.064c15.968-7.826,30.069-15.477,42.219-22.434c11.991-6.875,22.069-13.215,30.141-18.584
			c7.996-5.333,14.057-9.74,18.053-12.86c2.023-1.518,3.496-2.768,4.516-3.577c1.012-0.817,1.531-1.238,1.531-1.238
			s-0.518,0.425-1.521,1.248c-1.014,0.816-2.479,2.076-4.49,3.608c-3.975,3.147-10.005,7.597-17.967,12.987
			c-8.036,5.427-18.075,11.838-30.026,18.801c-12.109,7.046-26.167,14.799-42.099,22.744c-8.049,4.062-16.622,8.111-25.621,12.256
			c-9.104,4.146-18.7,8.287-28.75,12.398c-10.17,4.129-20.84,8.163-31.975,12.033c-2.813,0.95-5.635,1.955-8.508,2.88
			c-2.882,0.925-5.788,1.858-8.717,2.798c-2.956,0.883-5.934,1.772-8.936,2.668c-3.016,0.883-6.076,1.686-9.148,2.541
			c-12.429,3.308-25.329,6.197-38.724,8.217l-2.532,0.396l-2.521,0.309c-1.687,0.207-3.378,0.414-5.075,0.621
			c-1.702,0.201-3.41,0.402-5.124,0.604l-2.555,0.296l-2.564,0.36c-6.873,0.954-13.824,2.243-20.742,4.034
			c-6.967,1.797-13.884,4.113-20.612,6.957c-6.762,2.894-13.313,6.302-19.727,10.021c-6.463,3.729-12.848,7.71-19.444,11.595
			c-6.62,3.922-13.492,7.715-20.639,11.219c-14.446,7.103-29.974,12.949-46.053,17.602c-16.379,4.604-33.137,7.855-49.939,10.909
			c-17.088,3.075-34.283,5.92-51.469,9.163c-17.467,3.26-34.918,6.996-52.095,11.539c-17.452,4.578-34.512,10.219-50.689,16.877
			c-16.428,6.722-31.675,14.752-45.252,23.604c-1.7,1.12-3.396,2.237-5.088,3.352c-1.677,1.127-3.225,2.326-4.839,3.482
			c-1.599,1.166-3.195,2.329-4.787,3.489c-1.5,1.21-2.996,2.417-4.488,3.621c-1.492,1.206-2.98,2.407-4.463,3.606
			c-1.371,1.232-2.737,2.461-4.1,3.686c-1.364,1.225-2.725,2.445-4.082,3.663c-1.322,1.261-2.588,2.575-3.878,3.854
			c-1.285,1.287-2.566,2.57-3.842,3.849l-0.956,0.959l-0.86,0.889l-1.877,1.939c-2.531,2.575-4.918,5.17-7.52,7.676
			c-2.577,2.519-5.066,5.041-7.662,7.502c-2.617,2.46-5.213,4.9-7.787,7.32c-21.13,19.412-43.292,36.633-64.593,51.396
			c-21.643,15.016-42.387,27.482-60.361,37.391c-18.224,10.055-33.502,17.478-44.244,22.397c-5.409,2.475-9.657,4.315-12.575,5.549
			c-1.462,0.62-2.577,1.075-3.374,1.4c-0.782,0.313-1.18,0.474-1.18,0.474L-148.675,938.809z"/>
		<path clip-path="url(#SVGID_64_)" fill="#FBB317" d="M-316.761,988.688c0,0,1.428-0.972,4.19-2.85
			c2.757-1.855,6.843-4.578,12.239-8.067c10.714-6.951,26.521-16.916,47.075-29.062c20.259-11.971,44.958-26.014,73.788-41.085
			c3.563-1.859,7.174-3.745,10.831-5.654c3.69-1.871,7.425-3.766,11.204-5.683c7.484-3.853,15.35-7.619,23.277-11.544
			c15.88-7.636,32.488-15.473,49.987-23.139c17.176-7.663,35.213-15.104,53.76-22.478c9.252-3.537,18.512-7.226,28.052-10.623
			c4.729-1.707,9.438-3.486,14.232-5.152c4.783-1.645,9.582-3.295,14.395-4.951c4.773-1.688,9.645-3.211,14.506-4.783
			c2.424-0.779,4.851-1.562,7.281-2.345c2.428-0.774,4.843-1.585,7.303-2.297c9.761-2.899,19.513-5.935,29.434-8.564
			c2.459-0.677,4.92-1.354,7.381-2.032c2.455-0.684,4.913-1.359,7.393-1.957c4.933-1.235,9.87-2.472,14.809-3.709l3.694-0.924
			l3.709-0.836c2.469-0.554,4.939-1.107,7.409-1.662c2.464-0.553,4.928-1.105,7.392-1.658c1.231-0.272,2.459-0.563,3.692-0.817
			l3.698-0.729c4.917-0.97,9.833-1.938,14.746-2.907c2.447-0.511,4.899-0.906,7.35-1.319c2.445-0.412,4.89-0.825,7.333-1.236
			c2.437-0.412,4.874-0.822,7.309-1.232l3.603-0.598l3.616-0.582c4.807-0.772,9.609-1.545,14.404-2.316
			c4.786-0.736,9.512-1.62,14.252-2.444c4.716-0.852,9.425-1.618,14.124-2.536c4.679-0.908,9.35-1.815,14.011-2.721
			c2.325-0.432,4.638-0.936,6.95-1.436c2.307-0.494,4.612-0.989,6.914-1.483c18.218-3.983,36.231-8.497,53.591-14.177l6.431-2.126
			l6.311-2.318l3.144-1.153c1.047-0.383,2.058-0.83,3.088-1.242l6.136-2.51c8.01-3.521,15.834-7.267,23.191-11.5
			c7.309-4.199,14.259-8.725,20.948-13.432c6.65-4.682,13.062-9.54,19.532-14.302c12.746-9.511,25.931-18.527,39.634-26.474
			c13.531-7.854,27.479-14.64,41.339-20.668c13.705-5.899,27.371-10.978,40.674-15.662c6.583-2.301,13.067-4.566,19.447-6.797
			c3.174-1.11,6.322-2.213,9.444-3.306c3.101-1.116,6.176-2.222,9.225-3.319c6.063-2.197,12.048-4.295,17.881-6.469
			c5.796-2.166,11.487-4.293,17.069-6.379c21.93-8.391,42.026-16.704,59.577-25.466c1.085-0.543,2.189-1.037,3.239-1.61
			c1.056-0.562,2.105-1.119,3.147-1.674c2.08-1.105,4.134-2.198,6.159-3.275c1.021-0.523,1.997-1.103,2.972-1.668
			s1.943-1.127,2.904-1.684c1.919-1.114,3.81-2.211,5.675-3.293c3.627-2.288,7.179-4.468,10.566-6.654
			c3.332-2.236,6.579-4.375,9.677-6.488c3.061-2.142,6.014-4.209,8.857-6.198c2.807-2.019,5.505-3.957,8.091-5.815
			c5.132-3.726,9.822-7.131,14.038-10.193c4.198-3.047,7.933-5.758,11.168-8.106c3.238-2.326,5.983-4.298,8.203-5.893
			c4.429-3.174,6.781-4.861,6.781-4.861s-2.341,1.702-6.746,4.904c-2.209,1.609-4.939,3.598-8.161,5.944
			c-3.219,2.369-6.933,5.103-11.108,8.177c-4.194,3.086-8.859,6.521-13.963,10.279c-2.573,1.874-5.258,3.831-8.051,5.866
			c-2.83,2.008-5.77,4.096-8.818,6.258c-3.085,2.136-6.321,4.296-9.642,6.558c-3.376,2.209-6.92,4.418-10.539,6.733
			c-1.861,1.097-3.75,2.208-5.666,3.336c-0.959,0.565-1.926,1.134-2.899,1.707c-0.974,0.573-1.949,1.16-2.969,1.691
			c-2.023,1.093-4.075,2.2-6.153,3.325c-1.042,0.562-2.09,1.127-3.144,1.697c-1.05,0.582-2.153,1.084-3.238,1.635
			c-17.539,8.9-37.622,17.359-59.522,25.903c-5.573,2.124-11.256,4.29-17.043,6.496c-5.824,2.214-11.799,4.353-17.854,6.593
			c-3.045,1.117-6.116,2.244-9.212,3.381c-3.114,1.112-6.254,2.235-9.419,3.366c-6.363,2.271-12.829,4.578-19.393,6.921
			c-13.232,4.756-26.759,9.885-40.314,15.822c-13.697,6.065-27.437,12.864-40.724,20.693c-13.46,7.928-26.349,16.865-38.948,26.4
			c-6.398,4.776-12.768,9.674-19.455,14.449c-6.724,4.801-13.774,9.462-21.226,13.807c-7.504,4.385-15.505,8.282-23.687,11.94
			l-6.261,2.609c-1.051,0.428-2.087,0.892-3.153,1.29l-3.201,1.199l-6.43,2.407l-6.537,2.21
			c-17.646,5.9-35.859,10.586-54.237,14.732c-2.322,0.515-4.647,1.029-6.974,1.546c-2.332,0.521-4.666,1.044-7.006,1.495
			c-4.695,0.945-9.399,1.891-14.113,2.839c-4.733,0.956-9.49,1.764-14.247,2.656c-4.777,0.864-9.58,1.793-14.342,2.558
			c-4.794,0.805-9.594,1.61-14.399,2.416l-3.614,0.607l-3.64,0.628c-2.402,0.422-4.805,0.844-7.209,1.266
			c-2.409,0.423-4.818,0.847-7.229,1.269c-2.416,0.424-4.833,0.83-7.245,1.351c-4.842,0.987-9.686,1.978-14.531,2.966l-3.643,0.743
			c-1.214,0.26-2.425,0.555-3.637,0.831c-2.427,0.563-4.855,1.123-7.282,1.686c-2.432,0.563-4.864,1.125-7.295,1.688l-3.652,0.847
			l-3.638,0.937c-4.863,1.252-9.722,2.503-14.577,3.753c-2.441,0.604-4.861,1.286-7.276,1.977c-2.423,0.685-4.845,1.368-7.264,2.052
			c-9.76,2.654-19.356,5.711-28.954,8.631c-2.418,0.716-4.794,1.531-7.181,2.311c-2.39,0.787-4.777,1.572-7.161,2.357
			c-4.778,1.58-9.566,3.11-14.26,4.806c-4.73,1.661-9.446,3.317-14.146,4.969c-4.711,1.671-9.339,3.455-13.985,5.167
			c-9.371,3.405-18.469,7.102-27.554,10.642c-18.212,7.381-35.915,14.818-52.768,22.475c-17.166,7.655-33.453,15.476-49.017,23.088
			c-7.769,3.913-15.476,7.666-22.807,11.505c-3.701,1.909-7.359,3.795-10.973,5.659c-3.58,1.9-7.116,3.777-10.604,5.629
			c-28.217,14.996-52.36,28.948-72.129,40.819c-20.05,12.038-35.43,21.891-45.798,28.724c-5.222,3.433-9.157,6.097-11.783,7.892
			c-2.594,1.791-3.934,2.718-3.934,2.718L-316.761,988.688z"/>
		<path clip-path="url(#SVGID_64_)" fill="#72BF45" d="M-74.309,812.415c0,0,0.677-0.338,1.987-0.992
			c1.287-0.63,3.194-1.563,5.678-2.78c4.953-2.398,12.195-5.856,21.462-10.106c18.346-8.39,44.383-19.906,76.155-31.89
			c15.595-5.853,32.514-11.8,50.577-17.233c17.782-5.328,36.666-10.236,56.286-13.408c4.848-0.772,9.733-1.449,14.639-1.949
			c2.445-0.239,4.892-0.466,7.34-0.624c2.358-0.156,4.718-0.314,7.08-0.472c9.223-0.644,18.589-1.495,27.886-2.636
			c9.225-1.155,18.444-2.584,27.492-4.543c8.963-1.942,17.79-4.366,26.079-7.577c8.257-3.148,15.892-7.121,22.896-11.654
			c6.991-4.49,13.424-9.519,20.307-14.297c6.811-4.763,14.196-9.183,22.04-12.685c3.896-1.742,7.871-3.279,11.86-4.627
			c1.989-0.673,3.985-1.289,5.975-1.877c1.965-0.545,3.92-1.086,5.863-1.627c7.853-2.09,15.526-3.769,23.065-5.017
			c7.473-1.222,14.757-1.963,21.708-2.294c6.906-0.341,13.471-0.273,19.737-0.385c6.22-0.108,12.229-0.54,17.895-1.842
			c2.814-0.64,5.54-1.439,8.128-2.403c2.601-0.962,4.994-2.048,7.438-3.149c2.407-1.072,4.717-2.15,7.05-3.086
			c1.153-0.479,2.289-0.951,3.406-1.415c1.118-0.458,2.237-0.866,3.326-1.29c8.69-3.339,16.42-5.705,22.791-7.339
			c6.338-1.61,11.347-2.511,14.74-3.01c3.384-0.496,5.178-0.597,5.178-0.597s-1.798,0.134-5.175,0.69
			c-3.386,0.56-8.375,1.548-14.664,3.265c-6.323,1.739-13.972,4.229-22.537,7.693c-1.072,0.439-2.176,0.864-3.274,1.336
			c-1.096,0.479-2.209,0.964-3.34,1.457c-2.275,0.958-4.572,2.08-6.952,3.191c-2.342,1.1-4.856,2.316-7.488,3.347
			c-2.647,1.05-5.461,1.94-8.381,2.669c-5.883,1.482-12.158,2.063-18.481,2.311c-6.378,0.254-12.91,0.334-19.703,0.819
			c-6.834,0.476-13.924,1.353-21.188,2.698c-7.302,1.365-14.827,3.181-22.341,5.35c-3.863,1.153-7.662,2.25-11.405,3.603
			c-3.764,1.34-7.481,2.85-11.104,4.544c-7.294,3.408-14.075,7.619-20.539,12.313c-6.524,4.699-12.866,9.86-20.104,14.7
			c-7.243,4.88-15.455,9.343-24.272,12.866c-8.866,3.604-18.22,6.327-27.607,8.523c-9.484,2.217-19.045,3.856-28.568,5.213
			c-9.619,1.343-19.16,2.375-28.715,3.205c-2.356,0.199-4.709,0.396-7.06,0.596c-2.27,0.188-4.552,0.443-6.831,0.707
			c-4.576,0.55-9.162,1.269-13.727,2.081c-18.472,3.323-36.523,8.341-53.567,13.782c-17.309,5.543-33.596,11.595-48.613,17.541
			C5.536,786.279-19.572,797.939-37.18,806.39c-8.892,4.28-15.816,7.748-20.516,10.134c-2.338,1.199-4.133,2.121-5.344,2.742
			c-1.173,0.614-1.779,0.93-1.779,0.93L-74.309,812.415z"/>
		<path clip-path="url(#SVGID_64_)" fill="#FBB317" d="M33.573,869.474c0,0,0.217,0.002,0.643,0.005
			c0.347-0.003,0.866-0.007,1.55-0.014c1.548-0.027,3.908-0.086,7.08-0.259c6.302-0.337,15.724-1.086,27.754-2.735
			c11.893-1.631,26.288-4.145,42.495-7.944c4.005-0.99,8.129-2.001,12.352-3.076c4.185-1.165,8.497-2.29,12.872-3.563
			c2.177-0.654,4.377-1.315,6.6-1.983c1.111-0.334,2.227-0.669,3.348-1.006l0.843-0.252l0.21-0.063
			c0.222-0.07-0.066,0.026,0.043-0.011l0.43-0.141l1.722-0.565c2.299-0.755,4.619-1.517,6.961-2.285
			c1.169-0.384,2.342-0.77,3.521-1.157c1.119-0.399,2.242-0.801,3.371-1.203c2.255-0.805,4.529-1.614,6.821-2.433
			c2.289-0.807,4.604-1.75,6.933-2.629c2.315-0.911,4.688-1.755,7.007-2.737c2.328-0.959,4.671-1.923,7.03-2.893
			c9.333-3.967,18.823-8.198,28.324-12.865c9.444-4.595,18.969-9.486,28.658-14.535c9.608-5.002,19.405-10.15,29.575-15.115
			c5.056-2.459,10.188-4.883,15.438-7.196c2.547-1.131,5.097-2.263,7.649-3.396c2.59-1.125,4.989-2.271,7.491-3.408
			c9.904-4.571,19.66-9.545,29.503-14.576c9.745-4.997,19.696-9.967,29.809-14.531c10.016-4.536,20.167-8.684,30.299-12.505
			l1.886-0.719l0.471-0.181l0.236-0.09c0,0,0.331-0.128,0.061-0.021l0.921-0.38c1.205-0.508,2.505-1.006,3.628-1.519l3.105-1.538
			c1.035-0.574,2.069-1.197,3.106-1.79c4.06-2.493,7.759-5.431,11.184-8.604c3.416-3.169,6.589-6.548,9.648-10.021
			c3.062-3.459,6.056-6.974,9.099-10.468c6.081-6.958,12.414-13.809,19.484-20.007c6.983-6.185,14.539-11.763,22.434-16.556
			c7.832-4.769,15.955-8.765,24.036-12.141c8.021-3.339,15.98-6.177,23.778-8.432c3.85-1.219,7.694-2.152,11.441-3.156
			c1.864-0.521,3.735-0.902,5.576-1.338c1.84-0.422,3.661-0.84,5.463-1.253c7.012-1.548,13.586-3.988,19.831-6.388
			c12.329-4.869,23.253-9.945,32.775-14.469c9.423-4.502,17.484-8.556,24.05-11.908c6.52-3.332,11.582-5.991,15.01-7.81
			c3.41-1.823,5.223-2.794,5.223-2.794s-1.792,1.007-5.161,2.9c-3.389,1.888-8.392,4.65-14.84,8.117
			c-6.493,3.485-14.467,7.705-23.802,12.404c-9.437,4.725-20.254,10.027-32.575,15.191c-3.12,1.27-6.317,2.574-9.664,3.753
			c-3.327,1.186-6.898,2.333-10.49,3.19c-1.776,0.447-3.569,0.898-5.381,1.354c-1.813,0.469-3.656,0.885-5.486,1.438
			c-3.678,1.067-7.451,2.067-11.212,3.345c-7.627,2.377-15.36,5.321-23.099,8.73c-7.794,3.448-15.563,7.476-22.982,12.212
			c-7.477,4.76-14.558,10.231-21.09,16.277c-6.611,6.061-12.522,12.75-18.308,19.689c-2.899,3.49-5.787,7.047-8.804,10.621
			c-3.011,3.58-6.225,7.179-9.82,10.668c-3.605,3.492-7.658,6.879-12.277,9.851c-1.187,0.718-2.349,1.448-3.569,2.153l-3.9,2.017
			c-1.262,0.601-2.434,1.075-3.658,1.62l-0.911,0.396l-1.087,0.442l-1.831,0.742c-9.842,3.944-19.623,8.179-29.23,12.77
			c-9.706,4.625-19.206,9.615-28.771,14.772c-9.654,5.189-19.437,10.438-29.513,15.344c-2.539,1.218-5.121,2.51-7.617,3.655
			c-2.518,1.18-5.034,2.36-7.547,3.538c-4.925,2.291-9.777,4.705-14.587,7.17c-9.676,4.973-19.147,10.201-28.602,15.377
			c-9.529,5.219-19.049,10.363-28.593,15.253c-9.596,4.962-19.327,9.548-28.93,13.862c-2.434,1.06-4.853,2.112-7.255,3.158
			c-2.393,1.07-4.853,2.008-7.251,3.006c-2.429,0.975-4.778,1.986-7.225,2.909c-2.447,0.929-4.876,1.85-7.284,2.764
			c-1.208,0.457-2.41,0.911-3.607,1.366c-1.165,0.408-2.326,0.815-3.481,1.222c-2.314,0.812-4.607,1.617-6.878,2.414l-1.702,0.598
			l-0.424,0.149l-0.605,0.199l-0.877,0.283c-1.169,0.378-2.332,0.753-3.489,1.127c-2.32,0.749-4.615,1.49-6.886,2.224
			c-4.572,1.432-9.091,2.714-13.479,4.027c-4.436,1.229-8.776,2.39-12.996,3.521c-17.101,4.385-32.458,7.405-45.309,9.446
			c-13.009,2.067-23.398,3.131-30.602,3.676c-3.617,0.276-6.442,0.413-8.385,0.492c-1.059,0.029-1.863,0.053-2.402,0.068
			c-0.456,0.008-9.248,0.012-9.248,0.012L33.573,869.474z"/>
		<path clip-path="url(#SVGID_64_)" fill="#72BF45" d="M-180.681,916.338c0,0,1.269-0.229,3.725-0.671
			c2.502-0.464,6.205-1.153,11.019-2.047c9.602-1.814,23.599-4.524,41.197-8.138c17.353-3.566,38.111-7.992,61.46-13.321
			c22.909-5.235,48.223-11.302,75.104-18.359c26.288-6.896,54.02-14.71,82.27-23.724c27.54-8.842,55.655-18.781,82.677-30.649
			c13.239-5.856,26.239-12.166,38.417-19.165c6.045-3.464,11.911-7.086,17.418-10.914c2.91-1.992,5.821-3.984,8.731-5.977
			c2.996-1.986,5.973-4.018,8.983-5.961c11.922-7.775,24.141-15.262,36.6-22.36c12.338-7.008,24.843-13.69,37.48-19.924
			c24.82-12.301,49.987-22.952,74.616-32.005c24.067-8.848,47.626-16.141,70.031-22.157c21.909-5.893,42.746-10.567,62.06-14.546
			c9.493-1.941,18.634-3.811,27.392-5.6c8.635-1.828,16.885-3.639,24.329-6.41c7.47-2.725,14.332-6.133,20.59-9.672
			c6.208-3.549,11.858-7.234,16.967-10.875c10.154-7.223,18.346-14.114,24.919-19.829c6.523-5.696,11.473-10.279,14.872-13.359
			c3.379-3.078,5.213-4.687,5.213-4.687s-1.779,1.652-5.052,4.813c-3.294,3.161-8.083,7.862-14.425,13.727
			c-6.39,5.886-14.367,12.998-24.378,20.55c-5.036,3.805-10.637,7.685-16.857,11.471c-6.273,3.778-13.213,7.472-20.924,10.527
			c-3.93,1.54-7.948,2.926-12.138,4.024c-4.187,1.131-8.453,2.137-12.808,3.143c-8.745,1.958-17.872,4.001-27.349,6.123
			c-19.198,4.326-39.799,9.351-61.368,15.578c-22.046,6.354-45.123,13.965-68.572,23.069c-23.981,9.312-48.351,20.154-72.241,32.543
			c-12.156,6.274-24.147,12.972-35.945,19.964c-11.907,7.078-23.548,14.517-34.875,22.213c-2.866,1.927-5.614,3.885-8.428,5.824
			c-2.822,2.01-5.644,4.021-8.466,6.032c-5.925,4.256-12.164,8.24-18.549,12.031c-12.877,7.659-26.42,14.475-40.121,20.782
			c-27.963,12.777-56.671,23.391-84.712,32.86c-28.762,9.653-56.884,18.03-83.516,25.449c-27.239,7.591-52.853,14.142-76.042,19.814
			c-23.637,5.774-44.656,10.593-62.256,14.492c-17.85,3.952-32.082,6.937-41.907,8.95c-4.957,1-8.77,1.771-11.346,2.29
			c-2.633,0.517-3.993,0.782-3.993,0.782L-180.681,916.338z"/>
		<path clip-path="url(#SVGID_64_)" fill="#FBB317" d="M-455.886,856.534c0,0,1.568-0.729,4.601-2.14
			c2.987-1.364,7.409-3.383,13.158-6.007c11.441-5.171,28.117-12.591,49.354-21.671c20.934-8.953,46.183-19.457,75.078-30.86
			c28.334-11.163,60.025-23.136,94.544-35.06c33.668-11.607,69.875-23.162,108.215-33.265c9.403-2.483,18.941-4.853,28.591-7.088
			c9.575-2.222,19.254-4.327,29.047-6.216c19.337-3.743,39.07-6.842,58.952-8.531c2.458-0.241,4.922-0.382,7.383-0.563
			c2.455-0.193,4.911-0.301,7.365-0.424c2.492-0.134,4.822-0.219,7.156-0.303c2.336-0.087,4.673-0.174,7.009-0.261
			c9.282-0.362,18.555-0.724,27.81-1.083c18.278-0.744,36.463-1.589,54.5-2.706c17.748-1.108,35.358-2.487,52.765-4.347
			c8.601-0.916,17.154-1.924,25.645-3.084c4.222-0.545,8.427-1.186,12.619-1.781c4.172-0.656,8.334-1.264,12.474-1.971
			c32.578-5.34,64.081-12.5,93.956-20.401c29.069-7.688,56.695-15.927,82.292-24.83c12.581-4.346,24.693-8.849,36.387-13.324
			c11.565-4.419,22.736-8.823,33.677-12.784c10.822-3.914,21.466-7.315,31.833-9.838c10.256-2.474,20.203-4.138,29.58-5.086
			c4.711-0.467,9.232-0.699,13.629-0.806c4.369-0.083,8.579,0.019,12.634,0.214c8.048,0.42,15.447,1.305,22.296,2.175
			c6.793,0.872,13.081,1.69,18.94,2.171c5.817,0.467,11.215,0.586,16.111,0.358c4.868-0.222,9.234-0.787,12.998-1.47
			c1.88-0.307,3.605-0.729,5.187-1.063c1.572-0.386,2.997-0.756,4.269-1.094c1.263-0.374,2.377-0.705,3.338-0.989
			c0.958-0.294,1.753-0.581,2.398-0.791c1.286-0.431,1.949-0.653,1.949-0.653s-0.66,0.234-1.938,0.689
			c-0.642,0.223-1.433,0.523-2.387,0.836c-0.958,0.303-2.069,0.655-3.328,1.053c-1.27,0.363-2.693,0.762-4.265,1.178
			c-1.584,0.365-3.311,0.822-5.198,1.166c-3.777,0.76-8.172,1.414-13.09,1.733c-4.946,0.328-10.416,0.317-16.309-0.036
			c-5.932-0.363-12.298-1.058-19.131-1.789c-6.89-0.732-14.291-1.459-22.275-1.713c-4.021-0.113-8.183-0.13-12.487,0.037
			c-4.321,0.189-8.8,0.51-13.346,1.049c-9.271,1.116-18.977,2.935-28.975,5.543c-10.099,2.66-20.446,6.18-31.051,10.239
			c-10.718,4.109-21.744,8.697-33.229,13.334c-11.61,4.695-23.696,9.448-36.273,14.058c-25.603,9.434-53.266,18.289-82.429,26.533
			c-29.977,8.48-61.801,16.301-94.969,22.331c-4.213,0.794-8.454,1.49-12.707,2.234c-4.274,0.685-8.563,1.414-12.871,2.048
			c-8.666,1.337-17.4,2.521-26.18,3.616c-17.777,2.216-35.74,3.942-53.774,5.396c-18.329,1.465-36.736,2.651-55.161,3.736
			c-9.316,0.532-18.651,1.064-27.996,1.598c-2.343,0.131-4.686,0.26-7.03,0.391c-2.356,0.128-4.717,0.258-6.928,0.41
			c-2.255,0.147-4.504,0.276-6.776,0.492c-2.272,0.201-4.535,0.36-6.818,0.621c-18.381,1.833-36.921,5.008-55.203,8.823
			c-9.25,1.922-18.438,4.062-27.545,6.313c-9.175,2.265-18.266,4.662-27.251,7.175c-36.6,10.212-71.415,21.875-103.813,33.582
			c-33.193,12.015-63.724,24.069-91.004,35.291c-27.803,11.457-52.091,21.995-72.186,30.953
			c-20.376,9.081-36.333,16.477-47.205,21.593c-5.426,2.579-9.599,4.563-12.419,5.902c-2.742,1.327-4.159,2.014-4.159,2.014
			L-455.886,856.534z"/>
		<path clip-path="url(#SVGID_64_)" fill="#FBB317" d="M-507.292,1023.339c0,0,1.649-0.543,4.837-1.594
			c3.22-1.085,8.007-2.707,14.207-4.903c12.315-4.356,30.148-10.888,52.089-19.633c21.614-8.611,47.116-19.317,74.968-32.119
			c27.333-12.547,56.843-27.082,86.95-43.521c29.492-16.094,59.488-34.036,88.464-53.608c3.635-2.394,7.09-4.887,10.667-7.342
			c1.773-1.23,3.549-2.464,5.328-3.7c1.737-1.252,3.476-2.506,5.219-3.763c3.493-2.527,6.998-5.063,10.516-7.608
			c1.758-1.271,3.519-2.544,5.283-3.818c1.845-1.279,3.693-2.561,5.543-3.842c14.751-10.115,30.766-19.705,47.641-28.756
			c33.165-17.764,69.42-33.119,106.215-46.365c35.773-12.875,72.017-23.764,107.454-33.252c34.405-9.202,68.072-17.09,100.279-24.26
			c31.292-6.978,61.285-13.235,89.375-19.697c13.771-3.194,27.082-6.352,39.69-10.267c12.473-3.819,24.325-8.131,35.539-12.661
			c22.088-8.94,41.77-18.682,59.863-27.166c17.762-8.381,34.154-15.521,49.002-20.543c14.606-5,27.603-8.029,38.187-9.723
			c10.477-1.697,18.634-2.227,24.115-2.475c2.729-0.104,4.812-0.161,6.207-0.168c1.395-0.018,2.115-0.025,2.115-0.025l-0.205,1.148
			c0,0-0.714,0.015-2.099,0.041c-1.386,0.015-3.454,0.086-6.161,0.207c-5.437,0.282-13.52,0.86-23.881,2.606
			c-10.466,1.742-23.294,4.817-37.718,9.854c-14.663,5.063-30.864,12.237-48.509,20.697c-17.971,8.564-37.61,18.443-59.803,27.59
			c-11.268,4.635-23.212,9.065-35.813,13.01c-12.746,4.046-26.202,7.322-39.975,10.603c-28.14,6.65-58.08,13.084-89.263,20.235
			c-32.087,7.345-65.56,15.398-99.674,24.742c-35.127,9.63-70.95,20.63-106.136,33.533c-36.178,13.27-71.622,28.553-103.787,46.045
			c-16.345,8.9-31.841,18.323-45.958,28.146c-1.755,1.233-3.508,2.465-5.258,3.695c-1.743,1.277-3.482,2.554-5.219,3.828
			c-3.478,2.557-6.945,5.104-10.398,7.644c-1.744,1.278-3.485,2.554-5.222,3.827c-1.781,1.257-3.559,2.511-5.333,3.763
			c-3.58,2.498-7.04,5.033-10.678,7.472c-29.014,19.916-59.092,38.203-88.696,54.627c-30.225,16.78-59.885,31.643-87.392,44.495
			c-28.035,13.113-53.745,24.108-75.589,32.978c-22.177,9.008-40.269,15.769-52.862,20.316c-6.334,2.289-11.279,4.002-14.64,5.158
			c-3.435,1.156-5.21,1.753-5.21,1.753L-507.292,1023.339z"/>
	</g>
	<g>
		<defs>
			<path id="SVGID_83_" d="M0.575-399"/>
		</defs>
		<clipPath id="SVGID_66_">
			<use xlink:href="#SVGID_83_"  overflow="visible"/>
		</clipPath>
	</g>
	<g>
		<defs>
			<path id="SVGID_85_" d="M0.575-399"/>
		</defs>
		<clipPath id="SVGID_68_">
			<use xlink:href="#SVGID_85_"  overflow="visible"/>
		</clipPath>
		<g clip-path="url(#SVGID_68_)">
			<defs>
				<rect id="SVGID_91_" x="430.563" y="-138.73" width="709.012" height="1003.88"/>
			</defs>
			<clipPath id="SVGID_70_">
				<use xlink:href="#SVGID_91_"  overflow="visible"/>
			</clipPath>
			<rect x="430.563" y="-138.732" clip-path="url(#SVGID_70_)" fill="#FFFFFF" width="709.012" height="1003.878"/>
		</g>
	</g>
	<g>
		<defs>
			<line id="SVGID_93_" x1="1114.891" y1="567.845" x2="639.443" y2="567.845"/>
		</defs>
		<clipPath id="SVGID_72_">
			<use xlink:href="#SVGID_93_"  overflow="visible"/>
		</clipPath>
		<g clip-path="url(#SVGID_72_)">
			<defs>
				<line id="SVGID_95_" x1="1119.028" y1="560.038" x2="639.443" y2="560.038"/>
			</defs>
			<clipPath id="SVGID_74_">
				<use xlink:href="#SVGID_95_"  overflow="visible"/>
			</clipPath>
		</g>
	</g>
	<g>
		<defs>
			<path id="SVGID_99_" d="M0.575-399"/>
		</defs>
		<clipPath id="SVGID_76_">
			<use xlink:href="#SVGID_99_"  overflow="visible"/>
		</clipPath>
		<polygon clip-path="url(#SVGID_76_)" fill="#005BAA" points="409.034,208.168 611.49,208.168 596.947,183.168 394.49,183.168 		
			"/>
		<rect x="487.666" y="205.168" clip-path="url(#SVGID_76_)" fill="#00AA59" width="627.223" height="3"/>
	</g>
	<g>
		<defs>
			<path id="SVGID_101_" d="M0.575-399"/>
		</defs>
		<clipPath id="SVGID_78_">
			<use xlink:href="#SVGID_101_"  overflow="visible"/>
		</clipPath>
		<g clip-path="url(#SVGID_78_)">
			<defs>
				<rect id="SVGID_103_" x="638.89" y="149.61" width="476.005" height="30"/>
			</defs>
			<clipPath id="SVGID_80_">
				<use xlink:href="#SVGID_103_"  overflow="visible"/>
			</clipPath>
			<rect x="638.89" y="149.614" clip-path="url(#SVGID_80_)" fill="#FFFFFF" width="475.999" height="30"/>
		</g>
		<g clip-path="url(#SVGID_78_)">
			<defs>
				<rect id="SVGID_105_" x="638.89" y="495.01" width="476.005" height="30"/>
			</defs>
			<clipPath id="SVGID_82_">
				<use xlink:href="#SVGID_105_"  overflow="visible"/>
			</clipPath>
			<rect x="638.89" y="495.013" clip-path="url(#SVGID_82_)" fill="#FFFFFF" width="475.999" height="30"/>
		</g>
	</g>
	<g>
		<defs>
			<path id="SVGID_107_" d="M0.575-399"/>
		</defs>
		<clipPath id="SVGID_84_">
			<use xlink:href="#SVGID_107_"  overflow="visible"/>
		</clipPath>
		<polygon clip-path="url(#SVGID_84_)" fill="#005BAA" points="435.029,551 637.485,551 622.942,526 420.485,526 		"/>
		<rect x="487.666" y="548" clip-path="url(#SVGID_84_)" fill="#00AA59" width="627.223" height="3"/>
	</g>
	<g>
		<defs>
			<path id="SVGID_109_" d="M0.575-399"/>
		</defs>
		<clipPath id="SVGID_86_">
			<use xlink:href="#SVGID_109_"  overflow="visible"/>
		</clipPath>
		<g clip-path="url(#SVGID_86_)">
			<defs>
				<rect id="SVGID_111_" x="638.89" y="837.84" width="476.005" height="30"/>
			</defs>
			<clipPath id="SVGID_88_">
				<use xlink:href="#SVGID_111_"  overflow="visible"/>
			</clipPath>
			<rect x="638.89" y="837.845" clip-path="url(#SVGID_88_)" fill="#FFFFFF" width="475.999" height="30"/>
		</g>
	</g>
</g>
</svg>
